Street Number,Street Name,Street Side,Skytrain Station Name,BIA,# of racks,Year Installed,Type of Rack,Storage Capacity,Status,Street Bike Rack is Located ,Neighbourhood,
134,Abbott St,East,,GT,1,Prior 2010,,,,,Central Business District,
134,Abbott St,East,,GT,1,2012,,,,,Central Business District,
216,Abbott St,East,,GT,2,2012,,,,,Central Business District,
455,Abbott St,West,,HC,4,2014,,,,,Central Business District,
516,Abbott St,East,,HC,1,2014,,,,,Central Business District,
568,Abbott St,East,,HC,1,2014,,,,,Central Business District,
603,Abbott St,West,,HC,1,2014,,,,,Central Business District,
623,Abbott St,West,,HC,1,2014,,,,,Central Business District,
628,Abbott St,East,,HC,1,2014,,,,,Central Business District,
660,Abbott St,East,,HC,1,2014,,,,,Central Business District,
683,Abbott St,West,,HC,1,2014,,,,,Central Business District,
1488,Adanac,South,,,1,2014,,,,,Grandview-Woodland,
1351,Adanac St,North,,,2,2015,,,,,Grandview-Woodland,
1375,Adanac St,North,,,1,2015,,,,,Grandview-Woodland,
1600,Alberni St,North,,,1,2012,,,,,West End,
2104,Alberta St,East,,,2,2011,,,,,Mount Pleasant,
2104,Alberta St,East,,,2,2010,,,,,Mount Pleasant,
55,Alexander St,North,,GT,1,Prior 2010,,,,,Strathcona,
55,Alexander St,North,,GT,2,2012,,,,,Strathcona,
90,Alexander St,South,,GT,1,2012,,,,,Strathcona,
90,Alexander St,South,,GT,10,2013,,,,,Strathcona,
148,Alexander St,South,,,1,Prior 2010,,,,,Strathcona,
305,Alexander St,North,,STRC,1,2012,,,,,Strathcona,
320,Alexander St,South,,,2,Prior 2010,,,,,Strathcona,
320,Alexander St,South,,STRC,2,2014,,,,,Strathcona,
429,Alexander St,North,,,2,2015,,,,,Strathcona,
475,Alexander St,North,,STRC,2,2012,,,,,Strathcona,
611,Alexander St,North,,,3,2015,,,,,Strathcona,
704,Alexander St,South,,,3,2015,,,,,Strathcona,
200,Alexander St,North,,STRC,2,2012,,,,,Strathcona,
2083,Alma St,West,,,1,Prior 2010,,,,,West Point Grey,
2083,Alma St,West,,,3,2012,,,,,West Point Grey,
2607,Alma St,West,,,1,Prior 2010,,,,,West Point Grey,
2621,Alma St,West,,,1,Prior 2010,,,,,West Point Grey,
2780,Alma St,East,,,1,Prior 2010,,,,,West Point Grey,
2576,Arbutus St,East,,,1,2015,,,,,Arbutus Ridge,
2620,Arbutus St,East,,,1,2015,,,,,Arbutus Ridge,
2630,Arbutus St,East,,,1,2015,,,,,Arbutus Ridge,
2640,Arbutus St,East,,,1,2015,,,,,Arbutus Ridge,
2665,Arbutus St,West,,,1,2015,,,,,Arbutus Ridge,
2680,Arbutus St,East,,,1,2015,,,,,Arbutus Ridge,
2696,Arbutus St,East,,,1,2015,,,,,Arbutus Ridge,
2723,Arbutus St,West,,,1,2015,,,,,Arbutus Ridge,
2738,Arbutus St,East,,,1,2015,,,,,Arbutus Ridge,
1400,Balsam St,East,,,1,2012,,,,,Kitsilano,
5704,Balsam St,East,,,1,2012,,,,,Kitsilano,
5723,Balsam St,West,,,2,Prior 2010,,,,,Kitsilano,
1447,Barclay St,North,,,1,2013,,,,,West End,
2475,Bayswater St,West,,,1,Prior 2010,,,,,Kitsilano,
2486,Bayswater St,East,,WB,1,2011,,,,,Kitsilano,
510,Beatty St,East,,,2,2011,,,,,Central Business District,
546,Beatty St,East,,,1,2011,,,,,Central Business District,
546,Beatty St,East,,n/a,2,2016,,,,,Central Business District,
550,Beatty St,East,,n/a,2,2016,,,,,Central Business District,
568,Beatty St,East,,,1,2011,,,,,Central Business District,
590,Beatty St,East,Stadium-Chinatown,,2,2012,,,,,Central Business District,
600,Beatty St,East,,n/a,2,2016,,,,,Central Business District,
620,Beatty St,East,,n/a,6,2016,,,,,Central Business District,
688,Beatty St,West,,n/a,3,2016,,,,,Central Business District,
733,Beatty St,West,,n/a,2,2016,,,,,Central Business District,
773,Beatty St,West,,n/a,3,2016,,,,,Central Business District,
780,Beatty St,East,,,2,2011,,,,,Central Business District,
780,Beatty St,East,,n/a,1,2016,,,,,Central Business District,
788,Beatty St,East,,n/a,2,2016,,,,,Central Business District,
808,Beatty St,East,,n/a,5,2016,,,,,Central Business District,
837,Beatty St,West,,,1,2011,,,,,Central Business District,
837,Beatty St,West,,YT,2,2016,,,,,Central Business District,
855,Beatty St,East,,n/a,2,2016,,,,,Central Business District,
857,Beatty St,West,,YT,2,2016,,,,,Central Business District,
858,Beatty St,East,,,3,2011,,,,,Central Business District,
869,Beatty St,West,,YT,1,2016,,,,,Central Business District,
873,Beatty St,West,,,1,Prior 2010,,,,,Central Business District,
873,Beatty St,West,,,2,2011,,,,,Central Business District,
900,Beatty St,East,,,1,2012,,,,,Central Business District,
928,Beatty St,East,,n/a,7,2016,,,,,Central Business District,
939,Beatty St,West,,YT,1,2016,,,,,Central Business District,
989,Beatty St,West,,YT,1,2016,,,,,Central Business District,
777,Bidwell St,West,,,1,Prior 2010,,,,,West End,
1209,Bidwell St,West,,,2,2015,,,,,West End,
2400,Birch St,West,,,1,2012,,,,,Fairview,
2400,Blenheim St,East,,WB,1,2011,,,,,Dunbar-Southlands,
2500,Blenheim St,West,,WB,1,2011,,,,,Dunbar-Southlands,
3190,Blenheim St,East,,,1,Prior 2010,,,,,Dunbar-Southlands,
5675,Boundary Rd,West,,,1,Prior 2010,,,,,Renfrew-Collingwood,
1300,Broughton St,West,,,2,2012,,,,,West End,
200,Burrard St,West,,,1,Prior 2010,,,,,Central Business District,
355,Burrard St,West,,,2,2010,,,,,Central Business District,
401,Burrard St,West,,,2,2010,,,,,Central Business District,
550,Burrard St,East,,,1,Prior 2010,,,,,Central Business District,
635,Burrard St,West,Burrrad,,4,2012,,,,,Central Business District,
888,Burrard St,East,,,3,2010,,,,,Central Business District,
955,Burrard St,West,,,1,2015,,,,,Central Business District,
969,Burrard St,West,,,1,2015,,,,,Central Business District,
1081,Burrard St,West,,,3,2012,,,,,Central Business District,
1088,Burrard St,East,,,1,2015,,,,,Central Business District,
1088,Burrard St,East,,,2,2015,,,,,Central Business District,
1157,Burrard St,West,,,1,2015,,,,,Central Business District,
1160,Burrard St,East,,,1,2015,,,,,Central Business District,
1192,Burrard St,East,,,1,2015,,,,,Central Business District,
1238,Burrard St,East,,,1,2015,,,,,Central Business District,
1262,Burrard St,East,,,1,2015,,,,,Central Business District,
1306,Burrard St,East,,,1,2015,,,,,Central Business District,
1310,Burrard St,East,,,1,2015,,,,,Central Business District,
1340,Burrard St,East,,,1,2015,,,,,Central Business District,
1350,Burrard St,East,,,1,2015,,,,,Central Business District,
1980,Burrard St,East,,,1,Prior 2010,,,,,Central Business District,
2110,Burrard St,East,,,2,Prior 2010,,,,,Central Business District,
2385,Burrard St,West,,,1,Prior 2010,,,,,Central Business District,
2421,Burrard St,West,,,1,Prior 2010,,,,,Central Business District,
2445,Burrard St,West,,,1,Prior 2010,,,,,Central Business District,
580,Bute St,East,,,3,2015,,,,,West End,
800,Bute St,West,,,1,2012,,,,,West End,
808,Bute St,East,,,1,Prior 2010,,,,,West End,
814,Bute St,East,,,1,Prior 2010,,,,,West End,
936,Bute St,East,,,2,Prior 2010,,,,,West End,
1100,Bute St,East,,,2,2012,,,,,West End,
220,Cambie St,East,,,2,Prior 2010,,,,,Mount Pleasant,
220,Cambie St,East,,CB,2,2016,,,,,Mount Pleasant,
300,Cambie St,East,,,1,Prior 2010,,,,,Mount Pleasant,
310,Cambie St,East,,CB,2,2016,,,,,Mount Pleasant,
317,Cambie St,West,,CB,1,2016,,,,,Mount Pleasant,
322,Cambie St,East,,CB,1,2016,,,,,Mount Pleasant,
340,Cambie St,East,,CB,2,2016,,,,,Mount Pleasant,
440,Cambie St,East,,,1,Prior 2010,,,,,Mount Pleasant,
440,Cambie St,East,,n/a,1,2016,,,,,Mount Pleasant,
548,Cambie St,East,,n/a,1,2016,,,,,Mount Pleasant,
845,Cambie St,West,,YT,3,2014,,,,,Mount Pleasant,
888,Cambie St,East,,,1,Prior 2010,,,,,Mount Pleasant,
891,Cambie St,West,,YT,3,2014,,,,,Mount Pleasant,
896,Cambie St,South,,YT,2,2016,,,,,Mount Pleasant,
930,Cambie St,South,,YT,4,2016,,,,,Mount Pleasant,
1008,Cambie St,South,,YT,2,2016,,,,,Mount Pleasant,
2150,Cambie St,East,,,1,Prior 2010,,,,,Mount Pleasant,
2335,Cambie St,West,,,2,Prior 2010,,,,,Mount Pleasant,
2893,Cambie St,West,,,2,Prior 2010,,,,,Mount Pleasant,
2915,Cambie St,West,,CB,1,2016,,,,,Mount Pleasant,
2925,Cambie St,West,,CB,1,2016,,,,,Mount Pleasant,
2931,Cambie St,West,,CB,1,2016,,,,,Mount Pleasant,
2963,Cambie St,West,,CB,1,2016,,,,,Mount Pleasant,
3305,Cambie St,West,,,1,Prior 2010,,,,,Mount Pleasant,
3365,Cambie St,West,,,1,Prior 2010,,,,,Mount Pleasant,
3440,Cambie St,East,,,1,Prior 2010,,,,,Mount Pleasant,
4008,Cambie St,East,,CB,2,2016,,,,,Mount Pleasant,
4018,Cambie St,East,,CB,1,2016,,,,,Mount Pleasant,
4023,Cambie St,West,,CB,2,2016,,,,,Mount Pleasant,
4030,Cambie St,East,,CB,1,2016,,,,,Mount Pleasant,
4033,Cambie St,West,,CB,1,2016,,,,,Mount Pleasant,
4038,Cambie St,East,,,1,Prior 2010,,,,,Mount Pleasant,
4050,Cambie St,East,,CB,1,2016,,,,,Mount Pleasant,
4099,Cambie St,West,King Edward,,22,2012,,,,,Mount Pleasant,
6488,Cambie St,East,Langara-49th,,3,2012,,,,,Mount Pleasant,
8430,Cambie St,East,Marine Drive,,4,2012,,,,,Mount Pleasant,
8500,Cambie St,East,,,1,2012,,,,,Mount Pleasant,
1078,Cardero St,East,,,3,2013,,,,,West End,
298,Carrall St,East,,,2,Prior 2010,,,,,Central Business District,
360,Carrall St,East,,HC,1,2017,,,,,Central Business District,
511,Carrall St,West,,,2,2012,,,,,Central Business District,
5487,Cecil St,West,,,1,Prior 2010,,,,,Renfrew-Collingwood,
1716,Charles St,South,,,2,Prior 2010,,,,,Grandview-Woodland,
1100,Chestnut St,East,,,6,2015,,,,,Kitsilano,
505,Clark Dr,West,,,1,Prior 2010,,,,,Kensington-Cedar Cottage,
912,Clark Dr,East,,,1,Prior 2010,,,,,Kensington-Cedar Cottage,
912,Clark Dr,South,,,2,2011,,,,,Kensington-Cedar Cottage,
620,Clark Drive,East,,,1,2015,,,,,South Cambie,
823,Clark Drive,West,,,2,2015,,,,,South Cambie,
1111,Clark Drive,West,,,2,2015,,,,,South Cambie,
1215,Clark Drive,West,,,2,2015,,,,,South Cambie,
1269,Clark Drive,West,,,2,2015,,,,,South Cambie,
1345,Clark Drive,West,,,3,2015,,,,,South Cambie,
203,Columbia St,North,,,2,2014,,,,,Riley Park,
211,Columbia St,West,,GT,1,2012,,,,,Riley Park,
302,Columbia St,East,,,1,Prior 2010,,,,,Riley Park,
303,Columbia St,West,,,1,Prior 2010,,,,,Riley Park,
303,Columbia St,West,,,1,2014,,,,,Riley Park,
351,Columbia St,East,,,1,2014,,,,,Riley Park,
2021,Columbia St,West,,,2,2012,,,,,Riley Park,
1380,Commercial Dr,East,,,2,2013,,,,,Grandview-Woodland,
1010,Commercial Drive,East,,,2,2012,,,,,Oakridge,
1016,Commercial Drive,East,,,1,2012,,,,,Oakridge,
1025,Commercial Drive,West,,,1,2012,,,,,Oakridge,
1034,Commercial Drive,East,,,1,2012,,,,,Oakridge,
1034,Commercial Drive,East,,,1,2012,,,,,Oakridge,
1035,Commercial Drive,West,,,2,2012,,,,,Oakridge,
1045,Commercial Drive,West,,,2,Prior 2010,,,,,Oakridge,
1103,Commercial Drive,West,,,1,2012,,,,,Oakridge,
1111,Commercial Drive,West,,,1,Prior 2010,,,,,Oakridge,
1111,Commercial Drive,West,,,2,2012,,,,,Oakridge,
1132,Commercial Drive,East,,,1,Prior 2010,,,,,Oakridge,
1135,Commercial Drive,West,,,1,2012,,,,,Oakridge,
1204,Commercial Drive,East,,,1,Prior 2010,,,,,Oakridge,
1365,Commercial Drive,West,,,1,2012,,,,,Oakridge,
1380,Commercial Drive,East,,,1,Prior 2010,,,,,Oakridge,
1404,Commercial Drive,East,,,1,Prior 2010,,,,,Oakridge,
1505,Commercial Drive,West,,,1,Prior 2010,,,,,Oakridge,
1520,Commercial Drive,East,,,1,Prior 2010,,,,,Oakridge,
1604,Commercial Drive,East,,,1,Prior 2010,,,,,Oakridge,
1620,Commercial Drive,East,,,1,Prior 2010,,,,,Oakridge,
1675,Commercial Drive,West,,,1,Prior 2010,,,,,Oakridge,
1714,Commercial Drive,East,,,1,Prior 2010,,,,,Oakridge,
1726,Commercial Drive,East,,,1,Prior 2010,,,,,Oakridge,
1858,Commercial Drive,East,,,1,2012,,,,,Oakridge,
2010,Commercial Drive,East,,,1,Prior 2010,,,,,Oakridge,
2096,Commercial Drive,East,,,1,Prior 2010,,,,,Oakridge,
2210,Commercial Drive,East,,,1,Prior 2010,,,,,Oakridge,
2279,Commercial Drive,West,,,1,Prior 2010,,,,,Oakridge,
2290,Commercial Drive,East,,,1,Prior 2010,,,,,Oakridge,
2360,Commercial Drive,East,,,1,2015,,,,,Oakridge,
2575,Commercial Drive,West,,,1,Prior 2010,,,,,Oakridge,
2598,Commercial Drive,East,,,1,Prior 2010,,,,,Oakridge,
2601,Commercial Drive,West,,,1,2015,,,,,Oakridge,
2703,Commercial Drive,West,,,1,2015,,,,,Oakridge,
2733,Commercial Drive,West,,,2,2015,,,,,Oakridge,
2879,Commercial Drive,West,,,3,2015,,,,,Oakridge,
2915,Commercial Drive,West,,,1,2015,,,,,Oakridge,
1592,Comox St,South,,,1,Prior 2010,,,,,West End,
1700,Comox St,North,,,3,2010,,,,,West End,
1733,Comox St,North,,,5,Prior 2010,,,,,West End,
100,Cordova St,East,,HC,1,2014,,,,,Central Business District,
100,Cordova St,South,,HC,1,2014,,,,,Central Business District,
119,Cordova St,North,,HC,1,2014,,,,,Central Business District,
1935,Cornwall Av,North,,,1,Prior 2010,,,,,Kitsilano,
1937,Cornwall Av,North,,,2,Prior 2010,,,,,Kitsilano,
1941,Cornwall Av,North,,,1,Prior 2010,,,,,Kitsilano,
1945,Cornwall Av,North,,,1,Prior 2010,,,,,Kitsilano,
1995,Cornwall Av,North,,,1,2015,,,,,Kitsilano,
2200,Cornwall Av,South,,,2,Prior 2010,,,,,Kitsilano,
2210,Cornwall Av,South,,,2,2015,,,,,Kitsilano,
3425,Crowley,North,,,1,2014,,,,,Renfrew-Collingwood,
1660,Cypress St,East,,,1,2015,,,,,Kerrisdale,
1670,Cypress St,East,,,2,2015,,,,,Kerrisdale,
110,Davie St,South,,,3,Prior 2010,,,,,West End,
216,Davie St,South,,,1,Prior 2010,,,,,West End,
297,Davie St,North,Yaletown-Roundhouse,,6,2012,,,,,West End,
605,Davie St,North,,DVBIA,1,2016,,,,,West End,
671,Davie St,North,,,1,Prior 2010,,,,,West End,
677,Davie St,North,,DVBIA,2,2017,,,,,West End,
746,Davie St,North,,,1,Prior 2010,,,,,West End,
1105,Davie St,North,,,2,Prior 2010,,,,,West End,
1202,Davie St,South,,,1,Prior 2010,,,,,West End,
1204,Davie St,South,,,2,Prior 2010,,,,,West End,
1232,Davie St,South,,,1,2015,,,,,West End,
1248,Davie St,South,,,1,2015,,,,,West End,
1295,Davie St,North,,,1,2015,,,,,West End,
1600,Davie St,South,,,1,Prior 2010,,,,,West End,
1641,Davie St,North,,,1,Prior 2010,,,,,West End,
1650,Davie St,South,,,2,Prior 2010,,,,,West End,
1702,Davie St,South,,,1,Prior 2010,,,,,West End,
1762,Davie St,South,,,1,Prior 2010,,,,,West End,
1789,Davie St,North,,,1,Prior 2010,,,,,West End,
679,Denman St,West,,,1,Prior 2010,,,,,West End,
710,Denman St,East,,,2,Prior 2010,,,,,West End,
718,Denman St,East,,,1,Prior 2010,,,,,West End,
745,Denman St,West,,,1,Prior 2010,,,,,West End,
768,Denman St,East,,,1,Prior 2010,,,,,West End,
785,Denman St,West,,,3,Prior 2010,,,,,West End,
823,Denman St,West,,,1,Prior 2010,,,,,West End,
849,Denman St,West,,,2,2015,,,,,West End,
935,Denman St,West,,,1,Prior 2010,,,,,West End,
958,Denman St,East,,,1,Prior 2010,,,,,West End,
961,Denman St,West,,,1,Prior 2010,,,,,West End,
1015,Denman St,West,,,3,Prior 2010,,,,,West End,
1055,Denman St,West,,WE,2,2013,,,,,West End,
1100,Denman St,East,,,5,Prior 2010,,,,,West End,
1105,Denman St,West,,,1,Prior 2010,,,,,West End,
1156,Denman St,East,,,1,Prior 2010,,,,,West End,
1168,Denman St,East,,,1,Prior 2010,,,,,West End,
1180,Denman St,East,,,1,Prior 2010,,,,,West End,
1184,Denman St,East,,,3,2011,,,,,West End,
1184,Denman St,East,,,1,2015,,,,,West End,
1187,Denman St,West,,,1,Prior 2010,,,,,West End,
1210,Denman St,East,,,1,Prior 2010,,,,,West End,
530,Drake St,South,,,1,Prior 2010,,,,,Central Business District,
2505,Dunbar St,West,,,1,Prior 2010,,,,,Dunbar-Southlands,
3204,Dunbar St,East,,,1,Prior 2010,,,,,Dunbar-Southlands,
3211,Dunbar St,West,,,1,Prior 2010,,,,,Dunbar-Southlands,
3228,Dunbar St,East,,,2,Prior 2010,,,,,Dunbar-Southlands,
3308,Dunbar St,East,,,1,Prior 2010,,,,,Dunbar-Southlands,
3322,Dunbar St,East,,,1,Prior 2010,,,,,Dunbar-Southlands,
3335,Dunbar St,West,,,1,Prior 2010,,,,,Dunbar-Southlands,
3456,Dunbar St,East,,,1,Prior 2010,,,,,Dunbar-Southlands,
3468,Dunbar St,East,,,1,Prior 2010,,,,,Dunbar-Southlands,
3637,Dunbar St,West,,,1,Prior 2010,,,,,Dunbar-Southlands,
4205,Dunbar St,West,,,1,Prior 2010,,,,,Dunbar-Southlands,
4219,Dunbar St,West,,,1,Prior 2010,,,,,Dunbar-Southlands,
4231,Dunbar St,West,,,1,Prior 2010,,,,,Dunbar-Southlands,
4236,Dunbar St,East,,,1,Prior 2010,,,,,Dunbar-Southlands,
4243,Dunbar St,West,,,1,2012,,,,,Dunbar-Southlands,
4250,Dunbar St,East,,,2,Prior 2010,,,,,Dunbar-Southlands,
4306,Dunbar St,East,,,1,2012,,,,,Dunbar-Southlands,
4326,Dunbar St,East,,,1,Prior 2010,,,,,Dunbar-Southlands,
4336,Dunbar St,East,,,1,2012,,,,,Dunbar-Southlands,
4355,Dunbar St,West,,,1,Prior 2010,,,,,Dunbar-Southlands,
4355,Dunbar St,West,,,1,2012,,,,,Dunbar-Southlands,
4395,Dunbar St,West,,,1,Prior 2010,,,,,Dunbar-Southlands,
4428,Dunbar St,East,,,1,Prior 2010,,,,,Dunbar-Southlands,
4432,Dunbar St,East,,,1,2012,,,,,Dunbar-Southlands,
4445,Dunbar St,West,,,1,Prior 2010,,,,,Dunbar-Southlands,
4446,Dunbar St,East,,,1,2012,,,,,Dunbar-Southlands,
4467,Dunbar St,West,,,1,Prior 2010,,,,,Dunbar-Southlands,
4474,Dunbar St,East,,,1,2012,,,,,Dunbar-Southlands,
4497,Dunbar St,West,,,1,Prior 2010,,,,,Dunbar-Southlands,
4497,Dunbar St,West,,,1,2012,,,,,Dunbar-Southlands,
4555,Dunbar St,West,,,1,Prior 2010,,,,,Dunbar-Southlands,
4603,Dunbar St,West,,,1,Prior 2010,,,,,Dunbar-Southlands,
5587,Dunbar St,West,,,1,Prior 2010,,,,,Dunbar-Southlands,
5601,Dunbar St,West,,,2,Prior 2010,,,,,Dunbar-Southlands,
2177,Dundas St,North,,,1,2012,,,,,Hastings-Sunrise,
37,Dunlevy Av,West,,STRC,1,2012,,,,,Strathcona,
37,Dunlevy Av,West,,STRC,1,2013,,,,,Strathcona,
55,Dunlevy Av,West,,STRC,1,2013,,,,,Strathcona,
143,Dunlevy Av,West,,STRC,2,2017,,,,,Strathcona,
211,Dunlevy Av,West,,,2,2012,,,,,Strathcona,
304,Dunlevy Av,North,,STRC,2,2012,,,,,Strathcona,
433,Dunlevy Av,West,,STRC,2,2012,,,,,Strathcona,
111,Dunsmuir St,West,,n/a,2,2016,,,,,Central Business District,
111,Dunsmuir St,East,,n/a,2,2016,,,,,Central Business District,
579,Dunsmuir St,North,,,1,Prior 2010,,,,,Central Business District,
885,Dunsmuir St,North,,,1,Prior 2010,,,,,Central Business District,
888,Dunsmuir St,South,,,1,Prior 2010,,,,,Central Business District,
900,Dunsmuir St,South,,,1,Prior 2010,,,,,Central Business District,
111,E 10th,North,,,2,2014,,,,,Kensington-Cedar Cottage,
1700,E 10th Av,North,,,1,2010,,,,,Kensington-Cedar Cottage,
295,E 11th Av,North,,,1,Prior 2010,,,,,Mount Pleasant,
1800,E 11th Av,North,,,1,2012,,,,,Mount Pleasant,
2800,E 12th Av,South,,,1,2012,,,,,Mount Pleasant,
1680,E 13th Av,South,,,1,2015,,,,,Kensington-Cedar Cottage,
175,E 15th Av,North,,,3,2015,,,,,Mount Pleasant,
607,E 15th Av,North,,,2,2012,,,,,Mount Pleasant,
617,E 15th Av,North,,,1,2012,,,,,Mount Pleasant,
635,E 15th Av,North,,,1,2011,,,,,Mount Pleasant,
639,E 15th Av,North,,,1,2012,,,,,Mount Pleasant,
665,E 15th Av,North,,,2,2011,,,,,Mount Pleasant,
617,E 15th St,North,,,1,2013,,,,,Musqueam,
639,E 15th St,North,,,1,2013,,,,,Musqueam,
649,E 15th St,North,,,1,2013,,,,,Musqueam,
211,E 16th Av,North,,,1,Prior 2010,,,,,Riley Park,
197,E 17th Av,North,,,1,Prior 2010,,,,,Riley Park,
2450,E 24th Av,South,Nanaimo,,3,2012,,,,,Renfrew-Collingwood,
2790,E 29th Av,South,29th Ave,,3,2012,,,,,Renfrew-Collingwood,
127,E 2nd Av,North,,,1,Prior 2010,,,,,Mount Pleasant,
238,E 2nd Ave,South,,50,2,2014,,,,,Mount Pleasant,
107,E 3rd,North,,,1,2014,,,,,Grandview-Woodland,
143,E 3rd,North,,,1,2014,,,,,Grandview-Woodland,
112,E 3rd Av,South,,,1,2012,,,,,Grandview-Woodland,
146,E 3rd Av,South,,,1,2012,,,,,Grandview-Woodland,
173,E 3rd Av,North,,,3,2015,,,,,Grandview-Woodland,
683,E 44th Av,North,,,2,2015,,,,,Sunset,
696,E 45th Av,South,,,2,2012,,,,,Victoria-Fraserview,
20,E 4th Av,South,,,1,2011,,,,,Hastings-Sunrise,
127,E 4th Av,North,,,1,2012,,,,,Hastings-Sunrise,
137,E 4th Av,North,,,1,2012,,,,,Hastings-Sunrise,
272,E 4th Av,South,,,1,Prior 2010,,,,,Hastings-Sunrise,
56,E 5th Av,South,,,1,2015,,,,,Mount Pleasant,
60,E 5th Av,South,,,1,2015,,,,,Mount Pleasant,
7,E 6th Av,North,,,1,2012,,,,,Mount Pleasant,
45,E 6th Av,North,,,1,2015,,,,,Mount Pleasant,
48,E 6th Av,South,,,2,2012,,,,,Mount Pleasant,
73,E 6th Av,North,,,2,2015,,,,,Mount Pleasant,
203,E 6th Av,North,,,2,Prior 2010,,,,,Mount Pleasant,
209,E 6th Av,North,,,1,Prior 2010,,,,,Mount Pleasant,
1600,E 6th Av,South,,,1,2012,,,,,Mount Pleasant,
77,E 7th Av,North,,,1,Prior 2010,,,,,Mount Pleasant,
156,E 7th Av,South,,,2,2012,,,,,Mount Pleasant,
255,E 7th Av,North,,,2,2015,,,,,Mount Pleasant,
265,E 7th Av,North,,,3,2015,,,,,Mount Pleasant,
303,E 8th Av,North,,,1,Prior 2010,,,,,Mount Pleasant,
1600,E 8th Av,North,,,1,2012,,,,,Mount Pleasant,
5,E 8th St,South,,,4,2013,,,,,Marpole,
105,E Broadway,North,,,1,Prior 2010,,,,,Mount Pleasant,
127,E Broadway,North,,,1,Prior 2010,,,,,Mount Pleasant,
518,E Broadway,South,,,1,2015,,,,,Mount Pleasant,
612,E Broadway,South,,,2,2011,,,,,Mount Pleasant,
615,E Broadway,North,,,1,Prior 2010,,,,,Mount Pleasant,
800,E Broadway,South,,,1,Prior 2010,,,,,Mount Pleasant,
1037,E Broadway,North,,,2,2015,,,,,Mount Pleasant,
1458,E Broadway,South,,,1,2013,,,,,Mount Pleasant,
1464,E Broadway,South,,,1,2013,,,,,Mount Pleasant,
1725,E Broadway,North,Commercial-Broadway,,4,2012,,,,,Mount Pleasant,
2406,E Broadway,South,,n/a,2,2016,,,,,Mount Pleasant,
8,E Cordova St,South,,GT,1,2012,,,,,Central Business District,
44,E Cordova St,South,,GT,1,Prior 2010,,,,,Central Business District,
63,E Cordova St,North,,GT,1,2012,,,,,Central Business District,
93,E Cordova St,North,,GT,1,2012,,,,,Central Business District,
138,E Cordova St,South,,GT,2,Prior 2010,,,,,Central Business District,
208,E Georgia St,South,,CHTN,1,2012,,,,,Strathcona,
217,E Georgia St,North,,CHTN,1,2016,,,,,Strathcona,
239,E Georgia St,North,,CHTN,1,Prior 2010,,,,,Strathcona,
239,E Georgia St,North,,CHTN,1,2012,,,,,Strathcona,
501,E Georgia St,North,,CHTN,1,2014,,,,,Strathcona,
501,E Georgia St,North,,CHTN,2,2012,,,,,Strathcona,
628,E Georgia St,South,,CHTN,1,Prior 2010,,,,,Strathcona,
288,E Hastings St,South,,CHTN,1,2014,,,,,Grandview-Woodland,
320,E Hastings St,South,,,3,2015,,,,,Grandview-Woodland,
326,E Hastings St,South,,,1,2015,,,,,Grandview-Woodland,
403,E Hastings St,North,,STRC,1,2012,,,,,Grandview-Woodland,
449,E Hastings St,North,,,1,Prior 2010,,,,,Grandview-Woodland,
533,E Hastings St,North,,,1,Prior 2010,,,,,Grandview-Woodland,
533,E Hastings St,North,,,1,2013,,,,,Grandview-Woodland,
573,E Hastings St,North,,STRC,1,2012,,,,,Grandview-Woodland,
601,E Hastings St,North,,STRC,1,2014,,,,,Grandview-Woodland,
638,E Hastings St,South,,,1,2015,,,,,Grandview-Woodland,
649,E Hastings St,South,,STRC,1,2014,,,,,Grandview-Woodland,
651,E Hastings St,South,,STRC,1,2014,,,,,Grandview-Woodland,
660,E Hastings St,South,,,1,2015,,,,,Grandview-Woodland,
678,E Hastings St,South,,,1,2015,,,,,Grandview-Woodland,
684,E Hastings St,South,,,1,Prior 2010,,,,,Grandview-Woodland,
701,E Hastings St,North,,STRC,1,2014,,,,,Grandview-Woodland,
708,E Hastings St,South,,,1,2015,,,,,Grandview-Woodland,
717,E Hastings St,North,,STRC,1,2014,,,,,Grandview-Woodland,
769,E Hastings St,North,,STRC,2,2012,,,,,Grandview-Woodland,
769,E Hastings St,North,,STRC,1,2013,,,,,Grandview-Woodland,
828,E Hastings St,South,,,1,2015,,,,,Grandview-Woodland,
843,E Hastings St,North,,STRC,1,2012,,,,,Grandview-Woodland,
855,E Hastings St,North,,,1,2015,,,,,Grandview-Woodland,
872,E Hastings St,South,,,1,2015,,,,,Grandview-Woodland,
875,E Hastings St,North,,,1,2015,,,,,Grandview-Woodland,
878,E Hastings St,South,,,1,2015,,,,,Grandview-Woodland,
879,E Hastings St,North,,,1,2015,,,,,Grandview-Woodland,
890,E Hastings St,South,,STRC,3,2016,,,,,Grandview-Woodland,
895,E Hastings St,North,,STRC,1,2016,,,,,Grandview-Woodland,
1222,E Hastings St,South,,,2,2015,,,,,Grandview-Woodland,
1298,E Hastings St,South,,,3,2015,,,,,Grandview-Woodland,
1489,E Hastings St,North,,,1,2012,,,,,Grandview-Woodland,
1489,E Hastings St,West,,,2,2014,,,,,Grandview-Woodland,
1618,E Hastings St,South,,,1,Prior 2010,,,,,Grandview-Woodland,
1618,E Hastings St,South,,,1,2012,,,,,Grandview-Woodland,
1736,E Hastings St,South,,,1,2012,,,,,Grandview-Woodland,
1756,E Hastings St,South,,,1,2012,,,,,Grandview-Woodland,
1909,E Hastings St,North,,,1,Prior 2010,,,,,Grandview-Woodland,
2296,E Hastings St,South,,STRC,1,2014,,,,,Grandview-Woodland,
2342,E Hastings St,South,,,1,Prior 2010,,,,,Grandview-Woodland,
2465,E Hastings St,North,,HN,1,2013,,,,,Grandview-Woodland,
2510,E Hastings St,South,,,1,Prior 2010,,,,,Grandview-Woodland,
2585,E Hastings St,North,,,1,Prior 2010,,,,,Grandview-Woodland,
2614,E Hastings St,South,,,1,Prior 2010,,,,,Grandview-Woodland,
2647,E Hastings St,North,,,1,2012,,,,,Grandview-Woodland,
2674,E Hastings St,South,,,1,Prior 2010,,,,,Grandview-Woodland,
2769,E Hastings St,North,,,2,Prior 2010,,,,,Grandview-Woodland,
3423,E Hastings St,North,,,1,2011,,,,,Grandview-Woodland,
3433,E Hastings St,North,,,1,Prior 2010,,,,,Grandview-Woodland,
3435,E Hastings St,North,,,1,2011,,,,,Grandview-Woodland,
3475,E Hastings St,North,,,1,2011,,,,,Grandview-Woodland,
3501,E Hastings St,North,,,1,2011,,,,,Grandview-Woodland,
3550,E Hastings St,South,,,1,Prior 2010,,,,,Grandview-Woodland,
3550,E Hastings St,South,,,3,2011,,,,,Grandview-Woodland,
3561,E Hastings St,North,,,1,2011,,,,,Grandview-Woodland,
3578,E Hastings St,South,,,1,Prior 2010,,,,,Grandview-Woodland,
3599,E Hastings St,North,,,1,2011,,,,,Grandview-Woodland,
3622,E Hastings St,South,,,1,2011,,,,,Grandview-Woodland,
3660,E Hastings St,South,,,2,2011,,,,,Grandview-Woodland,
3683,E Hastings St,North,,,2,2011,,,,,Grandview-Woodland,
100,E Pender St,South,,,1,Prior 2010,,,,,Strathcona,
142,E Pender St,South,,,1,2012,,,,,Strathcona,
1220,E Pender St,South,,,2,2015,,,,,Strathcona,
1523,E Pender St,North,,,3,2015,,,,,Strathcona,
5720,East Boulevard,East,,,1,2012,,,,,Killarney,
1809,Fir St,West,,,1,2012,,,,,Shaughnessy,
1810,Fir St,East,,,5,Prior 2010,,,,,Shaughnessy,
1223,Frances St,North,,,1,2015,,,,,Grandview-Woodland,
1104,Franklin St,South,,,1,2015,,,,,Grandview-Woodland,
1112,Franklin St,South,,,1,2015,,,,,Grandview-Woodland,
1338,Franklin St,South,,,2,2015,,,,,Grandview-Woodland,
3207,Fraser St,South,,,1,2011,,,,,Sunset,
3213,Fraser St,West,,,1,2011,,,,,Sunset,
3227,Fraser St,West,,,1,2011,,,,,Sunset,
3245,Fraser St,West,,,3,2013,,,,,Sunset,
3381,Fraser St,West,,,1,2013,,,,,Sunset,
3455,Fraser St,West,,,1,2013,,,,,Sunset,
3469,Fraser St,West,,,1,2013,,,,,Sunset,
3485,Fraser St,West,,,2,2013,,,,,Sunset,
3497,Fraser St,West,,,1,2012,,,,,Sunset,
4097,Fraser St,West,,,1,2012,,,,,Sunset,
4129,Fraser St,West,,,1,2012,,,,,Sunset,
4153,Fraser St,West,,,1,2012,,,,,Sunset,
4208,Fraser St,East,,n/a,3,2016,,,,,Sunset,
4230,Fraser St,East,,,1,2012,,,,,Sunset,
4238,Fraser St,East,,n/a,1,2016,,,,,Sunset,
4259,Fraser St,West,,,1,2012,,,,,Sunset,
4287,Fraser St,West,,,2,2013,,,,,Sunset,
4288,Fraser St,East,,,1,2012,,,,,Sunset,
4304,Fraser St,East,,,1,2012,,,,,Sunset,
4305,Fraser St,West,,,1,2012,,,,,Sunset,
4326,Fraser St,East,,,2,2015,,,,,Sunset,
4386,Fraser St,East,,,1,2012,,,,,Sunset,
4588,Fraser St,East,,,1,2013,,,,,Sunset,
4590,Fraser St,East,,,2,2012,,,,,Sunset,
4950,Fraser St,East,,,1,2012,,,,,Sunset,
5550,Fraser St,East,,,1,Prior 2010,,,,,Sunset,
5838,Fraser St,East,,SHL,2,2011,,,,,Sunset,
5907,Fraser St,West,,SHL,1,2011,,,,,Sunset,
5914,Fraser St,East,,SHL,1,2011,,,,,Sunset,
5955,Fraser St,West,,,1,2015,,,,,Sunset,
5965,Fraser St,West,,,1,2015,,,,,Sunset,
5989,Fraser St,West,,,1,2015,,,,,Sunset,
6007,Fraser St,West,,,1,2012,,,,,Sunset,
6105,Fraser St,West,,SHL,1,2011,,,,,Sunset,
6108,Fraser St,East,,SHL,1,2011,,,,,Sunset,
6204,Fraser St,East,,SHL,1,2011,,,,,Sunset,
6207,Fraser St,West,,SHL,1,2011,,,,,Sunset,
6294,Fraser St,East,,,1,Prior 2010,,,,,Sunset,
6305,Fraser St,West,,,2,Prior 2010,,,,,Sunset,
6330,Fraser St,East,,SHL,1,2011,,,,,Sunset,
6434,Fraser St,East,,SHL,1,2011,,,,,Sunset,
6504,Fraser St,East,,SHL,1,2011,,,,,Sunset,
6505,Fraser St,West,,SHL,1,2011,,,,,Sunset,
1154,Gilford St,East,,,1,Prior 2010,,,,,West End,
189,Gore Av,West,,,1,2012,,,,,Strathcona,
789,Gore Av,West,,,2,Prior 2010,,,,,Strathcona,
747,Gore St,West,,CHTN,1,2013,,,,,Musqueam,
789,Gore St,North,,CHTN,2,2013,,,,,Musqueam,
2825,Grandview Highway,North,,,2,2015,,,,,Arbutus Ridge,
2825,Grandview Hwy,North,,,2,2013,,,,,Renfrew-Collingwood,
470,Granville St,East,,,1,Prior 2010,,,,,Central Business District,
540,Granville St,East,,,1,Prior 2010,,,,,Central Business District,
543,Granville St,West,,,1,Prior 2010,,,,,Central Business District,
736,Granville St,East,,,1,Prior 2010,,,,,Central Business District,
798,Granville St,East,,,1,Prior 2010,,,,,Central Business District,
819,Granville St,West,,,1,Prior 2010,,,,,Central Business District,
850,Granville St,East,,,1,Prior 2010,,,,,Central Business District,
881,Granville St,West,,,1,Prior 2010,,,,,Central Business District,
929,Granville St,West,,,1,Prior 2010,,,,,Central Business District,
1025,Granville St,West,,,1,Prior 2010,,,,,Central Business District,
1043,Granville St,West,,,1,Prior 2010,,,,,Central Business District,
1117,Granville St,West,,,4,2012,,,,,Central Business District,
1149,Granville St,West,,,1,Prior 2010,,,,,Central Business District,
1149,Granville St,West,,DVBIA,2,2013,,,,,Central Business District,
1176,Granville St,East,,,2,Prior 2010,,,,,Central Business District,
1208,Granville St,East,,,4,2012,,,,,Central Business District,
1265,Granville St,West,,,1,Prior 2010,,,,,Central Business District,
1306,Granville St,East,,,3,2015,,,,,Central Business District,
2247,Granville St,West,,,1,Prior 2010,,,,,Central Business District,
2335,Granville St,West,,SGV,1,2013,,,,,Central Business District,
2447,Granville St,West,,,1,Prior 2010,,,,,Central Business District,
2516,Granville St,East,,SGV,1,2013,,,,,Central Business District,
2590,Granville St,East,,,1,Prior 2010,,,,,Central Business District,
2600,Granville St,East,,,1,Prior 2010,,,,,Central Business District,
2600,Granville St,East,,SGV,1,2013,,,,,Central Business District,
2601,Granville St,West,,,1,Prior 2010,,,,,Central Business District,
2609,Granville St,West,,SGV,1,2013,,,,,Central Business District,
2658,Granville St,East,,SGV,1,2013,,,,,Central Business District,
2705,Granville St,West,,SGV,1,2013,,,,,Central Business District,
2723,Granville St,West,,SGV,1,2013,,,,,Central Business District,
2750,Granville St,East,,SGV,1,2013,,,,,Central Business District,
2775,Granville St,West,,,1,Prior 2010,,,,,Central Business District,
2801,Granville St,West,,SGV,1,2013,,,,,Central Business District,
2814,Granville St,East,,,1,Prior 2010,,,,,Central Business District,
2888,Granville St,East,,SGV,1,2013,,,,,Central Business District,
2977,Granville St,West,,SGV,1,2013,,,,,Central Business District,
2996,Granville St,East,,,1,Prior 2010,,,,,Central Business District,
2997,Granville St,West,,SGV,1,2013,,,,,Central Business District,
3007,Granville St,West,,,1,2015,,,,,Central Business District,
3010,Granville St,East,,SGV,1,2013,,,,,Central Business District,
3014,Granville St,East,,,1,Prior 2010,,,,,Central Business District,
3047,Granville St,West,,,1,2015,,,,,Central Business District,
3061,Granville St,West,,,1,2015,,,,,Central Business District,
3097,Granville St,North,,SGV,1,2013,,,,,Central Business District,
3149,Granville St,West,,SGV,1,2013,,,,,Central Business District,
7985,Granville St,West,,,2,Prior 2010,,,,,Central Business District,
7985,Granville St,West,,MRP,1,2012,,,,,Central Business District,
8002,Granville St,East,,,1,Prior 2010,,,,,Central Business District,
8075,Granville St,West,,,2,Prior 2010,,,,,Central Business District,
8155,Granville St,West,,MRP,1,2012,,,,,Central Business District,
8168,Granville St,East,,MRP,1,2012,,,,,Central Business District,
8273,Granville St,West,,MRP,1,2012,,,,,Central Business District,
8289,Granville St,West,,,1,Prior 2010,,,,,Central Business District,
8324,Granville St,East,,MRP,1,2012,,,,,Central Business District,
8333,Granville St,West,,MRP,1,2012,,,,,Central Business District,
8435,Granville St,West,,MRP,1,2012,,,,,Central Business District,
8490,Granville St,East,,MRP,1,2012,,,,,Central Business District,
8594,Granville St,East,,,1,Prior 2010,,,,,Central Business District,
8630,Granville St,East,,MRP,1,2012,,,,,Central Business District,
8662,Granville St,East,,,1,Prior 2010,,,,,Central Business District,
8662,Granville St,East,,MRP,1,2012,,,,,Central Business District,
8679,Granville St,West,,MRP,1,2012,,,,,Central Business District,
8697,Granville St,West,,,1,Prior 2010,,,,,Central Business District,
800,Griffiths Way,East,,,1,Prior 2010,,,,,Central Business District,
555,Hamilton St,North,,,1,Prior 2010,,,,,Central Business District,
858,Hamilton St,East,,,1,2015,,,,,Central Business District,
877,Hamilton St,East,,,3,2015,,,,,Central Business District,
878,Hamilton St,East,,,1,2015,,,,,Central Business District,
883,Hamilton St,West,,,1,2015,,,,,Central Business District,
888,Hamilton St,North,,YT,1,2016,,,,,Central Business District,
1020,Hamilton St,South,,YT,4,2016,,,,,Central Business District,
1090,Hamilton St,South,,,1,Prior 2010,,,,,Central Business District,
1009,Harwood St,North,,,2,2015,,,,,West End,
2500,Heather St,East,,,1,2012,,,,,Fairview,
2530,Heather St,East,,,1,Prior 2010,,,,,Fairview,
3195,Heather St,West,,,1,2012,,,,,Fairview,
3261,Heather St,West,,,1,Prior 2010,,,,,Fairview,
3265,Heather St,West,,,1,2015,,,,,Fairview,
3275,Heather St,West,,,1,2015,,,,,Fairview,
3275,Heather St,West,,,2,2015,,,,,Fairview,
409,Heatley Av,West,,STRC,1,2012,,,,,Strathcona,
500,Helmcken St,South,,,2,2012,,,,,Central Business District,
508,Helmcken St,South,,,1,Prior 2010,,,,,Central Business District,
540,Helmcken St,South,,,1,Prior 2010,,,,,Central Business District,
575,Helmcken St,North,,DVBIA,1,2016,,,,,Central Business District,
600,Helmcken St,South,,,2,2012,,,,,Central Business District,
600,Helmcken St,North,,,3,2012,,,,,Central Business District,
609,Helmcken St,West,,,2,Prior 2010,,,,,Central Business District,
609,Helmcken St,North,,DVBIA,3,2016,,,,,Central Business District,
649,Helmcken St,West,,,1,Prior 2010,,,,,Central Business District,
1085,Helmcken St,West,,,1,2011,,,,,Central Business District,
318,Homer St,East,,,1,Prior 2010,,,,,Central Business District,
318,Homer St,East,,,1,2011,,,,,Central Business District,
420,Homer St,East,,,2,Prior 2010,,,,,Central Business District,
514,Homer St,East,,,1,2011,,,,,Central Business District,
777,Homer St,West,,,3,2013,,,,,Central Business District,
855,Homer St,North,,DVBIA,2,2016,,,,,Central Business District,
856,Homer St,East,,,1,Prior 2010,,,,,Central Business District,
891,Homer St,West,,,2,Prior 2010,,,,,Central Business District,
1006,Homer St,East,,,1,2011,,,,,Central Business District,
1008,Homer St,South,,YT,5,2016,,,,,Central Business District,
1062,Homer St,East,,,1,2011,,,,,Central Business District,
1068,Homer St,East,,,1,Prior 2010,,,,,Central Business District,
1090,Homer St,East,,,2,Prior 2010,,,,,Central Business District,
1095,Homer St,West,,,1,Prior 2010,,,,,Central Business District,
1096,Homer St,East,,,1,2011,,,,,Central Business District,
1122,Homer St,East,,,1,2011,,,,,Central Business District,
1144,Homer St,East,,,1,Prior 2010,,,,,Central Business District,
1148,Homer St,East,,,1,2011,,,,,Central Business District,
1180,Homer St,East,,,1,Prior 2010,,,,,Central Business District,
1238,Homer St,East,,,1,2011,,,,,Central Business District,
1290,Homer St,East,,,1,Prior 2010,,,,,Central Business District,
1359,Hornby,West,,DVBIA,2,2014,,,,,Central Business District,
400,Hornby St,,,DVBIA,6,2016,,,,,Central Business District,
586,Hornby St,East,,,1,Prior 2010,,,,,Central Business District,
811,Hornby St,West,,,1,Prior 2010,,,,,Central Business District,
815,Hornby St,West,,,2,Prior 2010,,,,,Central Business District,
815,Hornby St,West,,,1,2013,,,,,Central Business District,
951,Hornby St,West,,,1,2012,,,,,Central Business District,
1001,Hornby St,West,,,3,2015,,,,,Central Business District,
1054,Hornby St,East,,,1,2012,,,,,Central Business District,
1082,Hornby St,East,,,1,2012,,,,,Central Business District,
1090,Hornby St,East,,,1,2012,,,,,Central Business District,
1177,Hornby St,West,,,1,Prior 2010,,,,,Central Business District,
1401,Hornby St,West,,,1,2011,,,,,Central Business District,
1401,Hornby St,West,,,1,2010,,,,,Central Business District,
1451,Hornby St,West,,,3,2012,,,,,Central Business District,
325,Howe St,West,,,1,Prior 2010,,,,,Central Business District,
466,Howe St,East,,,1,2012,,,,,Central Business District,
466,Howe St,East,,,1,2011,,,,,Central Business District,
535,Howe St,West,,,1,Prior 2010,,,,,Central Business District,
555,Howe St,West,,,1,Prior 2010,,,,,Central Business District,
595,Howe St,West,,,1,Prior 2010,,,,,Central Business District,
595,Howe St,West,,,2,2015,,,,,Central Business District,
600,Howe St,East,,,4,2015,,,,,Central Business District,
625,Howe St,West,,,1,Prior 2010,,,,,Central Business District,
1095,Howe St,West,,,1,Prior 2010,,,,,Central Business District,
1512,Howe St,East,,,1,Prior 2010,,,,,Central Business District,
1811,Howe St,West,,,1,Prior 2010,,,,,Central Business District,
20,Jackson Av,East,,,3,2015,,,,,Strathcona,
1100,Jervis St ,East,,,1,2012,,,,,West End,
5082,Joyce St,East,,,1,2014,,,,,Renfrew-Collingwood,
5099,Joyce St,North,Joyce-Collingwood,,3,2012,,,,,Renfrew-Collingwood,
5128,Joyce St,East,,,1,2014,,,,,Renfrew-Collingwood,
5160,Joyce St,East,,,1,2014,,,,,Renfrew-Collingwood,
145,Keefer St,North,,,1,2012,,,,,Central Business District,
232,Keefer St,South,,,1,2012,,,,,Central Business District,
2300,Keith St,West,,,1,2012,,,,,Musqueam,
39,Kingsway,North,,,3,2015,,,,,Renfrew-Collingwood,
76,Kingsway,West,,,2,2012,,,,,Renfrew-Collingwood,
188,Kingsway,West,,,1,2013,,,,,Renfrew-Collingwood,
355,Kingsway,North,,MP,4,2016,,,,,Renfrew-Collingwood,
359,Kingsway,North,,,1,Prior 2010,,,,,Renfrew-Collingwood,
398,Kingsway,South,,,1,2013,,,,,Renfrew-Collingwood,
488,Kingsway,South,,,1,2013,,,,,Renfrew-Collingwood,
500,Kingsway,South,,,1,2013,,,,,Renfrew-Collingwood,
560,Kingsway,South,,,1,2013,,,,,Renfrew-Collingwood,
612,Kingsway,South,,,1,Prior 2010,,,,,Renfrew-Collingwood,
650,Kingsway,South,,,1,Prior 2010,,,,,Renfrew-Collingwood,
772,Kingsway,South,,,1,2015,,,,,Renfrew-Collingwood,
776,Kingsway,South,,,1,2015,,,,,Renfrew-Collingwood,
856,Kingsway,South,,,1,2015,,,,,Renfrew-Collingwood,
868,Kingsway,South,,,1,Prior 2010,,,,,Renfrew-Collingwood,
888,Kingsway,South,,,1,2015,,,,,Renfrew-Collingwood,
898,Kingsway,South,,,3,2015,,,,,Renfrew-Collingwood,
934,Kingsway,South,,,1,2015,,,,,Renfrew-Collingwood,
1009,Kingsway,North,,,1,2015,,,,,Renfrew-Collingwood,
1021,Kingsway,North,,,1,2015,,,,,Renfrew-Collingwood,
1022,Kingsway,South,,,1,2015,,,,,Renfrew-Collingwood,
1022,Kingsway,South,,,1,2015,,,,,Renfrew-Collingwood,
1055,Kingsway,North,,,2,2015,,,,,Renfrew-Collingwood,
1072,Kingsway,South,,,1,2015,,,,,Renfrew-Collingwood,
1096,Kingsway,South,,,1,2015,,,,,Renfrew-Collingwood,
1097,Kingsway,North,,,2,2015,,,,,Renfrew-Collingwood,
1134,Kingsway,South,,,1,2015,,,,,Renfrew-Collingwood,
1170,Kingsway,South,,,1,2015,,,,,Renfrew-Collingwood,
1196,Kingsway,South,,,1,2015,,,,,Renfrew-Collingwood,
1238,Kingsway,South,,,1,2015,,,,,Renfrew-Collingwood,
1240,Kingsway,South,,,1,2015,,,,,Renfrew-Collingwood,
1243,Kingsway,North,,,1,2015,,,,,Renfrew-Collingwood,
1279,Kingsway,North,,,1,2015,,,,,Renfrew-Collingwood,
1284,Kingsway,South,,,1,2014,,,,,Renfrew-Collingwood,
1284,Kingsway,South,,,1,2015,,,,,Renfrew-Collingwood,
1299,Kingsway,North,,,1,2015,,,,,Renfrew-Collingwood,
1303,Kingsway,North,,,1,Prior 2010,,,,,Renfrew-Collingwood,
1303,Kingsway,North,,,2,2015,,,,,Renfrew-Collingwood,
1327,Kingsway,North,,,1,2014,,,,,Renfrew-Collingwood,
1333,Kingsway,North,,,1,2014,,,,,Renfrew-Collingwood,
1346,Kingsway,South,,,1,2014,,,,,Renfrew-Collingwood,
1356,Kingsway,South,,,1,2014,,,,,Renfrew-Collingwood,
1391,Kingsway,North,,,1,2014,,,,,Renfrew-Collingwood,
1398,Kingsway,South,,,1,2014,,,,,Renfrew-Collingwood,
1409,Kingsway,North,,,1,2013,,,,,Renfrew-Collingwood,
1427,Kingsway,North,,,1,2013,,,,,Renfrew-Collingwood,
1432,Kingsway,South,,,1,Prior 2010,,,,,Renfrew-Collingwood,
1459,Kingsway,North,,,1,Prior 2010,,,,,Renfrew-Collingwood,
1475,Kingsway,North,,,1,2011,,,,,Renfrew-Collingwood,
1680,Kingsway,South,,,1,2013,,,,,Renfrew-Collingwood,
1760,Kingsway,South,,,1,2013,,,,,Renfrew-Collingwood,
1818,Kingsway,South,,,1,2013,,,,,Renfrew-Collingwood,
1850,Kingsway,South,,,1,2013,,,,,Renfrew-Collingwood,
2066,Kingsway,South,,,1,2012,,,,,Renfrew-Collingwood,
2127,Kingsway,North,,,1,2012,,,,,Renfrew-Collingwood,
2298,Kingsway,South,,n/a,3,2016,,,,,Renfrew-Collingwood,
2310,Kingsway,South,,,3,2015,,,,,Renfrew-Collingwood,
2386,Kingsway,South,,,1,2014,,,,,Renfrew-Collingwood,
2392,Kingsway,South,,,1,2014,,,,,Renfrew-Collingwood,
2536,Kingsway,South,,,1,2013,,,,,Renfrew-Collingwood,
2934,Kingsway,South,,,1,2013,,,,,Renfrew-Collingwood,
3012,Kingsway,South,,CWD,1,2013,,,,,Renfrew-Collingwood,
3490,Kingsway,South,,CWD,1,2013,,,,,Renfrew-Collingwood,
3541,Kingsway,North,,,1,Prior 2010,,,,,Renfrew-Collingwood,
3544,Kingsway,South,,CWD,1,2013,,,,,Renfrew-Collingwood,
3546,Kingsway,South,,CWD,1,2013,,,,,Renfrew-Collingwood,
3617,Kingsway,North,,CWD,1,2013,,,,,Renfrew-Collingwood,
3665,Kingsway,North,,CWD,2,2013,,,,,Renfrew-Collingwood,
3919,Knight St,West,,,1,2014,,,,,Kensington-Cedar Cottage,
405,Kootenay St,West,,,2,2011,,,,,Hastings-Sunrise,
5818,Lincoln St,East,,,1,Prior 2010,,,,,Killarney,
2001,Macdonald St,South,,,1,2012,,,,,Kitsilano,
2001,Macdonald st,West,,,1,2013,,,,,Kitsilano,
4017,Macdonald St,West,,n/a,1,2016,,,,,Kitsilano,
4021,Macdonald St,West,,n/a,1,2016,,,,,Kitsilano,
4027,Macdonald St,West,,n/a,1,2016,,,,,Kitsilano,
4055,Macdonald St,West,,n/a,1,2016,,,,,Kitsilano,
4075,Macdonald St,West,,n/a,1,2016,,,,,Kitsilano,
4105,Macdonald St,West,,n/a,1,2016,,,,,Kitsilano,
4107,Macdonald St,West,,n/a,1,2016,,,,,Kitsilano,
4109,Macdonald St,West,,,1,Prior 2010,,,,,Kitsilano,
4889,Mackenzie St,West,,,1,Prior 2010,,,,,Arbutus Ridge,
4894,Mackenzie St,East,,,1,Prior 2010,,,,,Arbutus Ridge,
101,Main St,West,,,3,2015,,,,,Mount Pleasant,
121,Main St,West,,,1,Prior 2010,,,,,Mount Pleasant,
179,Main St,West,,,1,2015,,,,,Mount Pleasant,
180,Main St,East,,,2,2015,,,,,Mount Pleasant,
222,Main St,East,,,1,2012,,,,,Mount Pleasant,
231,Main St,West,,,2,2013,,,,,Mount Pleasant,
245,Main St,West,,,2,2015,,,,,Mount Pleasant,
247,Main St,West,,,1,2015,,,,,Mount Pleasant,
309,Main St,West,,,1,2012,,,,,Mount Pleasant,
416,Main St,East,,,2,2012,,,,,Mount Pleasant,
506,Main St,East,,,1,2012,,,,,Mount Pleasant,
700,Main St,East,,,2,2012,,,,,Mount Pleasant,
708,Main St,East,,,1,2012,,,,,Mount Pleasant,
728,Main St,East,,,1,2012,,,,,Mount Pleasant,
917,Main St,West,,,2,2012,,,,,Mount Pleasant,
917,Main St,West,,,2,2013,,,,,Mount Pleasant,
928,Main St,East,,,2,2012,,,,,Mount Pleasant,
1008,Main St,South,,,1,2012,,,,,Mount Pleasant,
1011,Main St,West,,,1,Prior 2010,,,,,Mount Pleasant,
1399,Main St,West,Main St-Science World,,4,2012,,,,,Mount Pleasant,
1965,Main St,West,,,2,Prior 2010,,,,,Mount Pleasant,
2015,Main St,West,,,2,2015,,,,,Mount Pleasant,
2136,Main St,East,,,2,2015,,,,,Mount Pleasant,
2148,Main St,East,,,1,2013,,,,,Mount Pleasant,
2148,Main St,East,,,1,2014,,,,,Mount Pleasant,
2148,Main St,East,,,2,2015,,,,,Mount Pleasant,
2152,Main St,East,,,3,2015,,,,,Mount Pleasant,
2218,Main St,East,,,1,Prior 2010,,,,,Mount Pleasant,
2345,Main St,West,,,2,2015,,,,,Mount Pleasant,
2403,Main St,West,,,1,2015,,,,,Mount Pleasant,
2429,Main St,West,,,1,2015,,,,,Mount Pleasant,
2541,Main St,West,,,1,2015,,,,,Mount Pleasant,
2543,Main St,West,,,1,Prior 2010,,,,,Mount Pleasant,
2549,Main St,West,,,1,2015,,,,,Mount Pleasant,
2600,Main St,East,,,1,Prior 2010,,,,,Mount Pleasant,
2616,Main St,East,,,1,2015,,,,,Mount Pleasant,
2630,Main St,East,,,2,2015,,,,,Mount Pleasant,
2655,Main St,West,,,1,Prior 2010,,,,,Mount Pleasant,
2702,Main St,East,,,1,2015,,,,,Mount Pleasant,
2812,Main St,East,,,1,2012,,,,,Mount Pleasant,
2818,Main St,East,,,1,2012,,,,,Mount Pleasant,
2828,Main St,East,,,1,Prior 2010,,,,,Mount Pleasant,
2830,Main St,East,,,1,2015,,,,,Mount Pleasant,
2899,Main St,West,,,1,2015,,,,,Mount Pleasant,
2902,Main St,East,,,1,2015,,,,,Mount Pleasant,
2949,Main St,West,,,1,Prior 2010,,,,,Mount Pleasant,
2970,Main St,East,,,1,Prior 2010,,,,,Mount Pleasant,
2980,Main St,East,,,1,Prior 2010,,,,,Mount Pleasant,
3010,Main St,East,,,1,Prior 2010,,,,,Mount Pleasant,
3010,Main St,East,,,1,2015,,,,,Mount Pleasant,
3045,Main St,West,,,2,Prior 2010,,,,,Mount Pleasant,
3080,Main St,East,,,1,2015,,,,,Mount Pleasant,
3096,Main St,East,,,2,2015,,,,,Mount Pleasant,
3102,Main St,East,,,1,Prior 2010,,,,,Mount Pleasant,
3418,Main St,East,,,2,2015,,,,,Mount Pleasant,
3425,Main St,West,,,2,2015,,,,,Mount Pleasant,
3443,Main St,West,,,1,2015,,,,,Mount Pleasant,
3448,Main St,East,,,1,2015,,,,,Mount Pleasant,
3463,Main St,West,,,1,Prior 2010,,,,,Mount Pleasant,
3463,Main St,West,,,1,2015,,,,,Mount Pleasant,
3511,Main St,West,,,2,2015,,,,,Mount Pleasant,
3561,Main St,West,,,2,2015,,,,,Mount Pleasant,
3573,Main St,West,,,1,2015,,,,,Mount Pleasant,
3585,Main St,West,,,1,2015,,,,,Mount Pleasant,
3603,Main St,West,,,2,2015,,,,,Mount Pleasant,
3699,Main St,West,,,1,Prior 2010,,,,,Mount Pleasant,
3699,Main St,West,,,2,2015,,,,,Mount Pleasant,
3757,Main St,West,,,1,2015,,,,,Mount Pleasant,
3795,Main St,West,,,1,2015,,,,,Mount Pleasant,
3835,Main St,West,,,1,2012,,,,,Mount Pleasant,
3878,Main St,East,,,1,2015,,,,,Mount Pleasant,
3882,Main St,East,,,1,2015,,,,,Mount Pleasant,
3941,Main St,West,,,2,2015,,,,,Mount Pleasant,
3950,Main St,East,,,1,2015,,,,,Mount Pleasant,
4071,Main St,West,,,2,2013,,,,,Mount Pleasant,
4124,Main St,East,,,1,2015,,,,,Mount Pleasant,
4129,Main St,West,,,1,2015,,,,,Mount Pleasant,
4136,Main St,East,,,1,2015,,,,,Mount Pleasant,
4162,Main St,East,,,1,2015,,,,,Mount Pleasant,
4172,Main St,West,,,1,Prior 2010,,,,,Mount Pleasant,
4198,Main St,East,,,1,2015,,,,,Mount Pleasant,
4205,Main St,East,,,1,Prior 2010,,,,,Mount Pleasant,
4216,Main St,East,,,1,2015,,,,,Mount Pleasant,
4219,Main St,West,,,1,2015,,,,,Mount Pleasant,
4262,Main St,East,,,1,2015,,,,,Mount Pleasant,
4288,Main St,East,,,1,2015,,,,,Mount Pleasant,
4301,Main St,West,,,1,2015,,,,,Mount Pleasant,
4355,Main St,West,,,1,2015,,,,,Mount Pleasant,
4363,Main St,West,,,1,Prior 2010,,,,,Mount Pleasant,
4401,Main St,West,,,1,2015,,,,,Mount Pleasant,
4423,Main St,West,,,2,2015,,,,,Mount Pleasant,
4433,Main St,West,,,1,2015,,,,,Mount Pleasant,
4456,Main St,East,,,1,2015,,,,,Mount Pleasant,
4464,Main St,East,,,1,2015,,,,,Mount Pleasant,
4475,Main St,West,,,2,2015,,,,,Mount Pleasant,
4510,Main St,East,,,1,2015,,,,,Mount Pleasant,
4514,Main St,East,,,1,2015,,,,,Mount Pleasant,
4515,Main St,West,,,1,2011,,,,,Mount Pleasant,
4531,Main St,West,,,1,2011,,,,,Mount Pleasant,
4554,Main St,East,,,1,2015,,,,,Mount Pleasant,
4560,Main St,East,,,1,2015,,,,,Mount Pleasant,
4570,Main St,East,,,1,Prior 2010,,,,,Mount Pleasant,
4575,Main St,West,,,2,2015,,,,,Mount Pleasant,
4628,Main St,East,,,2,2015,,,,,Mount Pleasant,
4645,Main St,West,,,1,2015,,,,,Mount Pleasant,
4673,Main St,West,,,1,2015,,,,,Mount Pleasant,
4750,Main St,East,,,1,2012,,,,,Mount Pleasant,
4825,Main St,West,,,2,2015,,,,,Mount Pleasant,
4871,Main St,West,,,1,2015,,,,,Mount Pleasant,
4873,Main St,West,,,1,2015,,,,,Mount Pleasant,
5685,Main St,West,,,1,Prior 2010,,,,,Mount Pleasant,
5749,Main St,West,,,1,Prior 2010,,,,,Mount Pleasant,
900,Mainland St,West,,,1,2012,,,,,Central Business District,
910,Mainland St,South,,,1,2013,,,,,Central Business District,
1020,Mainland St,South,,YT,3,2016,,,,,Central Business District,
1195,Mainland St,North,,,1,Prior 2010,,,,,Central Business District,
1605,Manitoba St,West,,,5,2012,,,,,Mount Pleasant,
1945,Manitoba St,West,,,1,2012,,,,,Mount Pleasant,
1200,Marinaside Crescent,South,,,1,2012,,,,,Marpole,
1228,Marinaside Crescent ,South,,,4,Prior 2010,,,,,Marpole,
1205,Melville St,North,,,2,2015,,,,,Central Business District,
127,N Templeton Drive,West,,,1,2012,,,,,Oakridge,
1316,Nanaimo St,East,,,1,2014,,,,,Kensington-Cedar Cottage,
1340,Nanaimo St,East,,,1,2014,,,,,Kensington-Cedar Cottage,
1386,Nanaimo St,East,,,1,2014,,,,,Kensington-Cedar Cottage,
1390,Nanaimo St,East,,,1,2014,,,,,Kensington-Cedar Cottage,
200,Nelson St,South,,YT,2,2016,,,,,West End,
3108,Oak St,East,,,2,2015,,,,,Shaughnessy,
3208,Oak St,East,,,1,Prior 2010,,,,,Shaughnessy,
3244,Oak St,East,,,1,Prior 2010,,,,,Shaughnessy,
189,Ontario Place,North,,,1,Prior 2010,,,,,Oakridge,
1836,Ontario St,East,,,2,2014,,,,,Mount Pleasant,
1863,Ontario St,West,,,2,2014,,,,,Mount Pleasant,
2515,Ontario St,West,,,1,Prior 2010,,,,,Mount Pleasant,
1108,Pacific Boulevard,South,,,1,2015,,,,,Sunset,
1108,Pacific Boulevard,South,,YT,1,2016,,,,,Sunset,
1156,Pacific Boulevard,South,,,1,2015,,,,,Sunset,
1156,Pacific Boulevard,South,,YT,1,2016,,,,,Sunset,
1165,Pacific Boulevard,North,,,1,2015,,,,,Sunset,
1165,Pacific Boulevard,North,,YT,1,2016,,,,,Sunset,
1195,Pacific Boulevard,North,,,2,2015,,,,,Sunset,
1195,Pacific Boulevard,North,,YT,2,2016,,,,,Sunset,
1196,Pacific Boulevard,South,,,1,2015,,,,,Sunset,
1196,Pacific Boulevard,South,,YT,1,2016,,,,,Sunset,
1205,Pacific Boulevard,North,,,1,2015,,,,,Sunset,
1205,Pacific Boulevard,North,,YT,1,2016,,,,,Sunset,
1213,Pacific Boulevard,North,,,1,2015,,,,,Sunset,
1213,Pacific Boulevard,North,,YT,1,2016,,,,,Sunset,
1251,Pacific Boulevard,North,,,1,2015,,,,,Sunset,
1251,Pacific Boulevard,North,,YT,1,2016,,,,,Sunset,
1267,Pacific Boulevard,North,,,1,2015,,,,,Sunset,
1267,Pacific Boulevard,North,,YT,1,2016,,,,,Sunset,
1268,Pacific Boulevard,South,,,1,2015,,,,,Sunset,
1268,Pacific Boulevard,South,,YT,1,2016,,,,,Sunset,
1279,Pacific Boulevard,North,,,1,Prior 2010,,,,,Sunset,
1282,Pacific Boulevard,South,,,1,2015,,,,,Sunset,
1282,Pacific Boulevard,South,,YT,1,2016,,,,,Sunset,
1300,Pacific Boulevard,South,,,1,2012,,,,,Sunset,
1300,Pacific Boulevard,South,,,3,2015,,,,,Sunset,
1300,Pacific Boulevard,South,,n/a,3,2016,,,,,Sunset,
2855,Point Grey Rd,North,,,2,2014,,,,,Kitsilano,
3215,Point Grey Rd,North,,,2,2014,,,,,Kitsilano,
3700,Point Grey Rd,North,,,2,2014,,,,,Kitsilano,
40,Powell St,South,,GT,1,2012,,,,,Strathcona,
43,Powell St,North,,GT,1,2012,,,,,Strathcona,
253,Powell St,North,,,1,2012,,,,,Strathcona,
300,Powell St,South,,STRC,2,2012,,,,,Strathcona,
362,Powell St,South,,STRC,2,2012,,,,,Strathcona,
374,Powell St,South,,STRC,1,2012,,,,,Strathcona,
398,Powell St,South,,STRC,1,2012,,,,,Strathcona,
403,Powell St,North,,STRC,1,2012,,,,,Strathcona,
415,Powell St,North,,STRC,1,2012,,,,,Strathcona,
429,Powell St,North,,STRC,1,2012,,,,,Strathcona,
451,Powell St,North,,STRC,1,2012,,,,,Strathcona,
453,Powell St,North,,STRC,1,2012,,,,,Strathcona,
477,Powell St,North,,,4,2015,,,,,Strathcona,
528,Powell St,South,,,1,Prior 2010,,,,,Strathcona,
537,Powell St,North,,STRC,3,2012,,,,,Strathcona,
543,Powell St,North,,,1,Prior 2010,,,,,Strathcona,
550,Powell St,South,,STRC,1,2012,,,,,Strathcona,
566,Powell St,South,,STRC,1,2012,,,,,Strathcona,
569,Powell St,North,,,1,Prior 2010,,,,,Strathcona,
569,Powell St,North,,STRC,1,2012,,,,,Strathcona,
580,Powell St,South,,,1,Prior 2010,,,,,Strathcona,
606,Powell St,South,,,1,Prior 2010,,,,,Strathcona,
606,Powell St,South,,,2,2015,,,,,Strathcona,
626,Powell St,South,,,1,2015,,,,,Strathcona,
636,Powell St,South,,,1,2015,,,,,Strathcona,
668,Powell St,South,,,2,2015,,,,,Strathcona,
686,Powell St,South,,,2,2015,,,,,Strathcona,
707,Powell St,North,,,2,2015,,,,,Strathcona,
807,Powell St,North,,,2,2015,,,,,Strathcona,
825,Powell St,North,,,1,2015,,,,,Strathcona,
1315,Powell St,North,,,2,2015,,,,,Strathcona,
1357,Powell St,North,,,3,2015,,,,,Strathcona,
1435,Powell St,North,,,2,2015,,,,,Strathcona,
1445,Powell St,North,,,1,2015,,,,,Strathcona,
1449,Powell St,North,,,2,2015,,,,,Strathcona,
1728,Powell St,North,,,1,2014,,,,,Strathcona,
1729,Powell St,North,,,1,2014,,,,,Strathcona,
2755,Prince Edward St,West,,,3,Prior 2010,,,,,Mount Pleasant,
1818,Quebec St,East,,n/a,3,2016,,,,,Mount Pleasant,
2043,Quebec St,West,,,1,2012,,,,,Mount Pleasant,
2323,Quebec St,West,,,2,2012,,,,,Mount Pleasant,
343,Railway,North,,,2,2014,,,,,Strathcona,
343,Railway St,North,,,1,Prior 2010,,,,,Strathcona,
395,Railway St,North,,STRC,1,2012,,,,,Strathcona,
422,Railway St,South,,,1,2015,,,,,Strathcona,
430,Railway St,South,,,2,2015,,,,,Strathcona,
439,Railway St,North,,,1,2015,,,,,Strathcona,
460,Railway St,South,,STRC,1,2012,,,,,Strathcona,
460,Railway St,South,,,1,2015,,,,,Strathcona,
505,Railway St,North,,,1,2015,,,,,Strathcona,
440,Richards St,West,,,1,2011,,,,,Central Business District,
500,Richards St,East,,,2,2012,,,,,Central Business District,
509,Richards St,West,,,1,2015,,,,,Central Business District,
555,Richards St,West,,,1,2011,,,,,Central Business District,
577,Richards St,West,,,1,2011,,,,,Central Business District,
808,Richards St,East,,,1,Prior 2010,,,,,Central Business District,
910,Richards St,South,,DVBIA,3,2016,,,,,Central Business District,
971,Richards St,West,,,2,Prior 2010,,,,,Central Business District,
1188,Richards St,East,,,2,Prior 2010,,,,,Central Business District,
1200,Richards St,East,,,1,2012,,,,,Central Business District,
1320,Richards St,East,,,2,Prior 2010,,,,,Central Business District,
1400,Richards St,West,,,1,2012,,,,,Central Business District,
111,Robson St,North,,,1,2011,,,,,West End,
111,Robson St,West,,n/a,2,2016,,,,,West End,
118,Robson St,East,,YT,2,2016,,,,,West End,
211,Robson St,North,,n/a,2,2016,,,,,West End,
238,Robson St,South,,YT,1,2016,,,,,West End,
255,Robson St,North,,n/a,1,2016,,,,,West End,
265,Robson St,North,,n/a,1,2016,,,,,West End,
275,Robson St,North,,n/a,2,2016,,,,,West End,
280,Robson St,South,,YT,1,2016,,,,,West End,
298,Robson St,South,,YT,2,2016,,,,,West End,
340,Robson St,South,,YT,1,2016,,,,,West End,
350,Robson St,South,,YT,1,2016,,,,,West End,
410,Robson St,South,,YT,1,2016,,,,,West End,
430,Robson St,South,,YT,1,2016,,,,,West End,
433,Robson St,North,,,2,Prior 2010,,,,,West End,
480,Robson St,South,,,2,Prior 2010,,,,,West End,
480,Robson St,South,,,1,Prior 2010,,,,,West End,
516,Robson St,South,,,1,Prior 2010,,,,,West End,
550,Robson St,South,,,2,Prior 2010,,,,,West End,
608,Robson St,South,,,2,Prior 2010,,,,,West End,
1025,Robson St,North,,,2,Prior 2010,,,,,West End,
1025,Robson St,North,,,2,2012,,,,,West End,
1100,Robson St,South,,,4,2015,,,,,West End,
1150,Robson St,South,,,1,Prior 2010,,,,,West End,
1175,Robson St,North,,,1,Prior 2010,,,,,West End,
1182,Robson St,South,,,1,Prior 2010,,,,,West End,
1187,Robson St,North,,,1,Prior 2010,,,,,West End,
1225,Robson St,North,,,1,Prior 2010,,,,,West End,
1280,Robson St,South,,,1,Prior 2010,,,,,West End,
1290,Robson St,South,,,1,Prior 2010,,,,,West End,
1300,Robson St,South,,,1,Prior 2010,,,,,West End,
1323,Robson St,North,,,1,Prior 2010,,,,,West End,
1553,Robson St,North,,,1,Prior 2010,,,,,West End,
1688,Robson St,South,,,1,Prior 2010,,,,,West End,
1701,Robson St,North,,,1,Prior 2010,,,,,West End,
1716,Robson St,South,,,1,Prior 2010,,,,,West End,
1741,Robson St,North,,,1,Prior 2010,,,,,West End,
1766,Robson St,South,,,1,Prior 2010,,,,,West End,
1779,Robson St,North,,,1,Prior 2010,,,,,West End,
1785,Robson St,North,,,2,Prior 2010,,,,,West End,
1793,Robson St,North,,,1,Prior 2010,,,,,West End,
1800,Robson St,South,,,1,2012,,,,,West End,
1817,Robson St,North,,,2,Prior 2010,,,,,West End,
555,Seymour St,West,,,3,Prior 2010,,,,,Central Business District,
655,Seymour St,West,Granville St,,4,2012,,,,,Central Business District,
900,Seymour St,South,,DVBIA,1,2016,,,,,Central Business District,
901,Seymour St,West,,,1,Prior 2010,,,,,Central Business District,
930,Seymour St,North,,DVBIA,3,2016,,,,,Central Business District,
1022,Seymour St,South,,DVBIA,3,2016,,,,,Central Business District,
1067,Seymour St,West,,,1,Prior 2010,,,,,Central Business District,
1067,Seymour St,West,,DVBIA,1,2016,,,,,Central Business District,
1082,Seymour St,West,,DVBIA,2,2016,,,,,Central Business District,
1092,Seymour St,West,,DVBIA,3,2016,,,,,Central Business District,
1100,Seymour St,West,,,4,2012,,,,,Central Business District,
1107,Seymour St,West,,,3,Prior 2010,,,,,Central Business District,
1155,Seymour St,West,,DVBIA,1,2016,,,,,Central Business District,
1160,Seymour St,East,,,1,Prior 2010,,,,,Central Business District,
1181,Seymour St,West,,DVBIA,2,2016,,,,,Central Business District,
1199,Seymour St,West,,DVBIA,1,2016,,,,,Central Business District,
524,Shanghai Alley,East,,,1,2015,,,,,Stanley Park,
405,Skeena St,West,,,4,2011,,,,,Hastings-Sunrise,
79,Smithe St,North ,,,2,2014,,,,,Central Business District,
79,Smithe St,North,,,2,2011,,,,,Central Business District,
99,Smithe St,North ,,,1,2014,,,,,Central Business District,
99,Smithe St,North,,,1,2011,,,,,Central Business District,
101,Smithe St,North,,YT,3,2016,,,,,Central Business District,
225,Smithe St,North,,YT,2,2016,,,,,Central Business District,
355,Smithe St,North,,DVBIA,2,2016,,,,,Central Business District,
589,Smithe St,North,,DVBIA,4,2016,,,,,Central Business District,
601,Smithe St,North,,,1,Prior 2010,,,,,Central Business District,
1000,Smithe St,North,,,1,2012,,,,,Central Business District,
600,Stamps Landing,South,,n/a,1,2016,,,,,Renfrew-Collingwood,
600,Stamps Landing,south,,n/a,2,2016,,,,,Renfrew-Collingwood,
2025,Stephens St,West,,,2,Prior 2010,,,,,Kitsilano,
2025,Stephens St,West,,,2,2013,,,,,Kitsilano,
535,Thurlow St,West,,,1,2015,,,,,West End,
535,Thurlow St,West,,,1,2015,,,,,West End,
842,Thurlow St,East,,,1,Prior 2010,,,,,West End,
2480,Trafalgar St,East,,,2,Prior 2010,,,,,Kitsilano,
2590,Trimble St,East,,PGV,1,2011,,,,,West Point Grey,
1946,Triumph St,South,,,1,2012,,,,,Grandview-Woodland,
2400,Trutch St,East,,WB,1,2011,,,,,Arbutus Ridge,
219,Union St,North,,CHTN,1,2012,,,,,Strathcona,
219,Union St,North,,CHTN,1,2013,,,,,Strathcona,
221,Union St,North,,CHTN,1,2012,,,,,Strathcona,
231,Union St,North,,CHTN,1,2012,,,,,Strathcona,
241,Union St,North,,CHTN,1,2012,,,,,Strathcona,
243,Union St,North,,CHTN,1,2012,,,,,Strathcona,
251,Union St,North,,,1,Prior 2010,,,,,Strathcona,
251,Union St,North,,CHTN,1,2013,,,,,Strathcona,
255,Union St,North,,CHTN,1,2013,,,,,Strathcona,
598,Union St,South,,,1,Prior 2010,,,,,Strathcona,
1033,Venables St,North,,STRC,1,2012,,,,,Grandview-Woodland,
1255,Venables St,North,,,1,2015,,,,,Grandview-Woodland,
1420,Venables St,South,,,1,2015,,,,,Grandview-Woodland,
1457,Venables St,North,,,1,2015,,,,,Grandview-Woodland,
1461,Venables St,North,,,1,2015,,,,,Grandview-Woodland,
1495,Venables St,North,,,1,2015,,,,,Grandview-Woodland,
1503,Venables St,North,,,1,2015,,,,,Grandview-Woodland,
1530,Venables St,South,,,1,2015,,,,,Grandview-Woodland,
1685,Venables St,North,,,1,2015,,,,,Grandview-Woodland,
1697,Venables St,North,,,1,Prior 2010,,,,,Grandview-Woodland,
1302,Victoria Drive,East,,,1,Prior 2010,,,,,Kitsilano,
4932,Victoria Drive,East,,VDR,1,2012,,,,,Kitsilano,
4969,Victoria Drive,West,,VDR,1,2012,,,,,Kitsilano,
4990,Victoria Drive,East,,VDR,1,2012,,,,,Kitsilano,
5026,Victoria Drive,East,,VDR,1,2013,,,,,Kitsilano,
5037,Victoria Drive,West,,,1,Prior 2010,,,,,Kitsilano,
5038,Victoria Drive,East,,VDR,1,2013,,,,,Kitsilano,
5052,Victoria Drive,East,,VDR,1,2012,,,,,Kitsilano,
5057,Victoria Drive,West,,VDR,1,2012,,,,,Kitsilano,
5076,Victoria Drive,East,,VDR,1,2012,,,,,Kitsilano,
5124,Victoria Drive,East,,VDR,1,2012,,,,,Kitsilano,
5157,Victoria Drive,West,,VDR,1,2012,,,,,Kitsilano,
5239,Victoria Drive,West,,VDR,1,2012,,,,,Kitsilano,
5265,Victoria Drive,West,,VDR,1,2012,,,,,Kitsilano,
5393,Victoria Drive,West,,VDR,1,2012,,,,,Kitsilano,
5448,Victoria Drive,East,,VDR,1,2012,,,,,Kitsilano,
5449,Victoria Drive,West,,VDR,1,2012,,,,,Kitsilano,
5470,Victoria Drive,East,,VDR,1,2012,,,,,Kitsilano,
5492,Victoria Drive,East,,VDR,1,2012,,,,,Kitsilano,
5501,Victoria Drive,West,,VDR,1,2012,,,,,Kitsilano,
5579,Victoria Drive,West,,VDR,1,2012,,,,,Kitsilano,
5590,Victoria Drive,East,,,1,Prior 2010,,,,,Kitsilano,
5656,Victoria Drive,East,,VDR,1,2012,,,,,Kitsilano,
5661,Victoria Drive,West,,VDR,1,2012,,,,,Kitsilano,
5723,Victoria Drive,West,,VDR,1,2012,,,,,Kitsilano,
5732,Victoria Drive,East,,VDR,1,2012,,,,,Kitsilano,
5780,Victoria Drive,East,,VDR,1,2012,,,,,Kitsilano,
5807,Victoria Drive,West,,VDR,1,2012,,,,,Kitsilano,
5853,Victoria Drive,West,,VDR,1,2012,,,,,Kitsilano,
5885,Victoria Drive,West,,VDR,1,2012,,,,,Kitsilano,
6225,Victoria Drive,West,,VDR,1,2012,,,,,Kitsilano,
6370,Victoria Drive,East,,,1,Prior 2010,,,,,Kitsilano,
6404,Victoria Drive,East,,VDR,1,2012,,,,,Kitsilano,
6440,Victoria Drive,East,,VDR,1,2012,,,,,Kitsilano,
6470,Victoria Drive,East,,VDR,1,2012,,,,,Kitsilano,
6471,Victoria Drive,West,,VDR,2,2012,,,,,Kitsilano,
6495,Victoria Drive,West,,VDR,1,2012,,,,,Kitsilano,
6579,Victoria Drive,West,,,1,Prior 2010,,,,,Kitsilano,
6586,Victoria Drive,East,,VDR,1,2012,,,,,Kitsilano,
6647,Victoria Drive,West,,VDR,1,2012,,,,,Kitsilano,
6689,Victoria Drive,West,,VDR,1,2012,,,,,Kitsilano,
6904,Victoria Drive,East,,VDR,1,2012,,,,,Kitsilano,
6942,Victoria Drive,East,,VDR,1,2012,,,,,Kitsilano,
6945,Victoria Drive,West,,VDR,1,2012,,,,,Kitsilano,
6979,Victoria Drive,West,,VDR,1,2012,,,,,Kitsilano,
3702,W 10th Av,South,,,1,Prior 2010,,,,,Fairview,
3712,W 10th Av,South,,,1,2015,,,,,Fairview,
3730,W 10th Av,South,,,1,2015,,,,,Fairview,
3742,W 10th Av,South,,,1,2015,,,,,Fairview,
3743,W 10th Av,North,,,1,Prior 2010,,,,,Fairview,
3751,W 10th Av,North,,,1,Prior 2010,,,,,Fairview,
3751,W 10th Av,North,,,1,2015,,,,,Fairview,
3754,W 10th Av,South,,,1,Prior 2010,,,,,Fairview,
3760,W 10th Av,South,,,1,Prior 2010,,,,,Fairview,
3783,W 10th Av,North,,,1,Prior 2010,,,,,Fairview,
3785,W 10th Av,North,,,1,2015,,,,,Fairview,
3788,W 10th Av,South,,,1,Prior 2010,,,,,Fairview,
4326,W 10th Av,South,,,1,Prior 2010,,,,,Fairview,
4330,W 10th Av,South,,PGV,1,2011,,,,,Fairview,
4343,W 10th Av,North,,PGV,1,2011,,,,,Fairview,
4346,W 10th Av,South,,,1,Prior 2010,,,,,Fairview,
4358,W 10th Av,South,,,1,2015,,,,,Fairview,
4364,W 10th Av,South,,,1,2015,,,,,Fairview,
4370,W 10th Av,South,,,1,2015,,,,,Fairview,
4375,W 10th Av,North,,,1,Prior 2010,,,,,Fairview,
4387,W 10th Av,North,,PGV,1,2011,,,,,Fairview,
4397,W 10th Av,North,,,1,Prior 2010,,,,,Fairview,
4401,W 10th Av,North,,PGV,1,2011,,,,,Fairview,
4426,W 10th Av,South,,,1,Prior 2010,,,,,Fairview,
4434,W 10th Av,South,,,1,Prior 2010,,,,,Fairview,
4441,W 10th Av,North,,,1,Prior 2010,,,,,Fairview,
4441,W 10th Av,North,,PGV,1,2011,,,,,Fairview,
4444,W 10th Av,South,,,1,Prior 2010,,,,,Fairview,
4449,W 10th Av,North,,,1,Prior 2010,,,,,Fairview,
4455,W 10th Av,North,,,1,Prior 2010,,,,,Fairview,
4456,W 10th Av,South,,,1,Prior 2010,,,,,Fairview,
4459,W 10th Av,North,,,1,Prior 2010,,,,,Fairview,
4479,W 10th Av,North,,,1,Prior 2010,,,,,Fairview,
4480,W 10th Av,South,,,1,Prior 2010,,,,,Fairview,
4485,W 10th Av,North,,PGV,1,2011,,,,,Fairview,
4501,W 10th Av,North,,,1,Prior 2010,,,,,Fairview,
4501,W 10th Av,North,,PGV,1,2011,,,,,Fairview,
4502,W 10th Av,South,,,1,Prior 2010,,,,,Fairview,
4516,W 10th Av,South,,,1,Prior 2010,,,,,Fairview,
4520,W 10th Av,South,,PGV,1,2011,,,,,Fairview,
4530,W 10th Av,South,,PGV,1,2011,,,,,Fairview,
4538,W 10th Av,South,,,1,Prior 2010,,,,,Fairview,
4538,W 10th Av,South,,PGV,1,2011,,,,,Fairview,
4545,W 10th Av,North,,,1,Prior 2010,,,,,Fairview,
4545,W 10th Av,North,,PGV,1,2011,,,,,Fairview,
4580,W 10th Av,South,,,1,Prior 2010,,,,,Fairview,
4597,W 10th Av,North,,PGV,1,2011,,,,,Fairview,
1510,W 11th Av,South,,,1,Prior 2010,,,,,Fairview,
1520,W 11th Av,South,,SGV,1,2013,,,,,Fairview,
1440,W 12th Av,South,,,1,Prior 2010,,,,,Fairview,
1507,W 12th Av,North,,,3,2012,,,,,Fairview,
2108,W 12th Av,South,,,1,2012,,,,,Fairview,
1500,W 13th Av,South,,,1,2012,,,,,Kitsilano,
1510,W 14th Av,South,,,1,Prior 2010,,,,,West Point Grey,
980,W 15th Av,South,,,1,2015,,,,,Kitsilano,
1520,W 15th Av,South,,SGV,1,2013,,,,,Kitsilano,
736,W 16th Av,South,,,1,2015,,,,,South Cambie,
758,W 16th Av,South,,,1,2015,,,,,South Cambie,
2100,W 16th Av,South,,,1,Prior 2010,,,,,South Cambie,
2595,W 16th Av,North,,,1,2012,,,,,South Cambie,
2595,W 16th Av,North,,,1,2012,,,,,South Cambie,
2603,W 16th Av,North,,,2,2012,,,,,South Cambie,
2607,W 16th Av,North,,,1,Prior 2010,,,,,South Cambie,
2611,W 16th Av,North,,,1,2012,,,,,South Cambie,
2627,W 16th Av,North,,,1,Prior 2010,,,,,South Cambie,
2756,W 16th Av,South,,,1,Prior 2010,,,,,South Cambie,
3195,W 16th Av,North,,,1,Prior 2010,,,,,South Cambie,
3870,W 16th Av,South,,,1,Prior 2010,,,,,South Cambie,
3637,W 17th Av,North,,,1,Prior 2010,,,,,Riley Park,
85,W 1st Av,South,,,12,2014,,,,,Kitsilano,
106,W 1st Av,South,,,1,Prior 2010,,,,,Kitsilano,
1800,W 1st Av,South,,,2,Prior 2010,,,,,Kitsilano,
1809,W 1st Av,North,,,1,Prior 2010,,,,,Kitsilano,
1855,W 1st Av,North,,,2,Prior 2010,,,,,Kitsilano,
1898,W 1st Av,South,,,1,Prior 2010,,,,,Kitsilano,
1900,W 1st Av,South,,,1,Prior 2010,,,,,Kitsilano,
1900,W 1st Av,South,,,5,2015,,,,,Kitsilano,
1901,W 1st Av,North,,,1,2015,,,,,Kitsilano,
2100,W 1st Av,South,,,1,2012,,,,,Kitsilano,
2201,W 1st Av,West,,,1,2015,,,,,Kitsilano,
988,W 21st Av,South,,,1,Prior 2010,,,,,Dunbar-Southlands,
500,W 24th Av,North,,,1,2012,,,,,Dunbar-Southlands,
29,W 2nd Av,North,,,1,2012,,,,,Kitsilano,
52,W 2nd Av,South,,,2,2012,,,,,Kitsilano,
118,W 2nd Av,South,,,1,2012,,,,,Kitsilano,
336,W 2nd Av,South,,,1,2012,,,,,Kitsilano,
525,W 2nd Av,North,Olympic Village,,4,2012,,,,,Kitsilano,
1505,W 2nd Av,North,,,1,Prior 2010,,,,,Kitsilano,
1534,W 2nd Av,South,,,1,Prior 2010,,,,,Kitsilano,
1650,W 2nd Av,South,,,1,2012,,,,,Kitsilano,
1720,W 2nd Av,South,,,1,2012,,,,,Kitsilano,
1900,W 2nd Av,South,,,1,2012,,,,,Kitsilano,
2102,W 39th Av,South,,,1,Prior 2010,,,,,Dunbar-Southlands,
60,W 3rd Av,South,,,1,2012,,,,,Kitsilano,
105,W 3rd Av,North,,,1,2012,,,,,Kitsilano,
124,W 3rd Av,South,,,1,2012,,,,,Kitsilano,
126,W 3rd Av,South,,,1,2012,,,,,Kitsilano,
190,W 3rd Av,South,,,1,2012,,,,,Kitsilano,
290,W 3rd Av,South,,,1,2012,,,,,Kitsilano,
1701,W 3rd Av,North,,,2,2015,,,,,Kitsilano,
1751,W 3rd Av,North,,,1,2015,,,,,Kitsilano,
1777,W 3rd Av,North,,,1,Prior 2010,,,,,Kitsilano,
1780,W 3rd Av,South,,,1,Prior 2010,,,,,Kitsilano,
2107,W 40th Av,North,,,1,2012,,,,,Shaughnessy,
2130,W 40th Av,South,,,1,2012,,,,,Shaughnessy,
510,W 41st Av,South,Oakridge-41st,,4,2012,,,,,Oakridge,
2021,W 41st Av,North,,,1,2012,,,,,Oakridge,
2028,W 41st Av,South,,,1,Prior 2010,,,,,Oakridge,
2057,W 41st Av,North,,,1,2012,,,,,Oakridge,
2094,W 41st Av,South,,,1,2012,,,,,Oakridge,
2120,W 41st Av,South,,,1,Prior 2010,,,,,Oakridge,
2198,W 41st Av,South,,,1,2012,,,,,Oakridge,
2208,W 41st Av,South,,,1,2012,,,,,Oakridge,
2225,W 41st Av,North,,,1,Prior 2010,,,,,Oakridge,
2225,W 41st Av,North,,,2,2012,,,,,Oakridge,
2246,W 41st Av,South,,,1,2012,,,,,Oakridge,
2253,W 41st Av,North,,,1,2012,,,,,Oakridge,
2260,W 41st Av,South,,,1,2012,,,,,Oakridge,
2267,W 41st Av,North,,,1,2012,,,,,Oakridge,
2303,W 41st Av,North,,,1,Prior 2010,,,,,Oakridge,
2305,W 41st Av,North,,,1,2012,,,,,Oakridge,
2326,W 41st Av,South,,,1,Prior 2010,,,,,Oakridge,
2326,W 41st Av,South,,,1,2012,,,,,Oakridge,
2380,W 41st Av,South,,,1,Prior 2010,,,,,Oakridge,
2443,W 41st Av,North,,,1,2012,,,,,Oakridge,
2448,W 41st Av,South,,,1,2012,,,,,Oakridge,
2496,W 41st Av,South,,,1,2012,,,,,Oakridge,
3502,W 41st Av,South,,DBR,1,2016,,,,,Oakridge,
3510,W 41st Av,South,,DBR,1,2016,,,,,Oakridge,
3516,W 41st Av,South,,DBR,1,2016,,,,,Oakridge,
3535,W 41st Av,North,,DBR,5,2016,,,,,Oakridge,
3562,W 41st Av,South,,DBR,1,2016,,,,,Oakridge,
3568,W 41st Av,South,,DBR,1,2016,,,,,Oakridge,
3584,W 41st Av,South,,DBR,2,2016,,,,,Oakridge,
3591,W 41st Av,North,,,1,Prior 2010,,,,,Oakridge,
1988,W 49th Av,South,,,1,Prior 2010,,,,,Oakridge,
165,W 4th,North,,,3,2014,,,,,Kitsilano,
38,W 4th Av,South,,,1,2012,,,,,Kitsilano,
149,W 4th Av,North,,,1,Prior 2010,,,,,Kitsilano,
163,W 4th Av,West,,,1,2012,,,,,Kitsilano,
165,W 4th Av,West,,,1,2012,,,,,Kitsilano,
1590,W 4th Av,South,,,2,2012,,,,,Kitsilano,
1599,W 4th Av,North,,,2,2012,,,,,Kitsilano,
1615,W 4th Av,North,,,1,Prior 2010,,,,,Kitsilano,
1618,W 4th Av,South,,,1,Prior 2010,,,,,Kitsilano,
1628,W 4th Av,South,,,1,2012,,,,,Kitsilano,
1707,W 4th Av,North,,KT,1,2017,,,,,Kitsilano,
1723,W 4th Av,North,,,1,2012,,,,,Kitsilano,
1731,W 4th Av,North,,,1,Prior 2010,,,,,Kitsilano,
1755,W 4th Av,North,,,1,Prior 2010,,,,,Kitsilano,
1755,W 4th Av,North,,,1,2012,,,,,Kitsilano,
1775,W 4th Av,North,,,1,Prior 2010,,,,,Kitsilano,
1793,W 4th Av,North,,,2,2012,,,,,Kitsilano,
1804,W 4th Av,South,,,1,2011,,,,,Kitsilano,
1823,W 4th Av,North,,,1,Prior 2010,,,,,Kitsilano,
1828,W 4th Av,South,,,1,2011,,,,,Kitsilano,
1843,W 4th Av,North,,,1,Prior 2010,,,,,Kitsilano,
1843,W 4th Av,North,,,1,2011,,,,,Kitsilano,
1855,W 4th Av,North,,,1,2011,,,,,Kitsilano,
1869,W 4th Av,North,,,1,Prior 2010,,,,,Kitsilano,
1885,W 4th Av,North,,,1,Prior 2010,,,,,Kitsilano,
1905,W 4th Av,North,,,1,2011,,,,,Kitsilano,
1906,W 4th Av,South,,,2,2011,,,,,Kitsilano,
1947,W 4th Av,North,,,1,Prior 2010,,,,,Kitsilano,
1961,W 4th Av,North,,,1,2011,,,,,Kitsilano,
1972,W 4th Av,South,,,1,Prior 2010,,,,,Kitsilano,
1985,W 4th Av,North,,,1,Prior 2010,,,,,Kitsilano,
1992,W 4th Av,South,,,1,2011,,,,,Kitsilano,
2010,W 4th Av,South,,,3,Prior 2010,,,,,Kitsilano,
2021,W 4th Av,North,,,1,2011,,,,,Kitsilano,
2023,W 4th Av,North,,,1,2011,,,,,Kitsilano,
2028,W 4th Av,South,,,1,2011,,,,,Kitsilano,
2033,W 4th Av,North,,,1,Prior 2010,,,,,Kitsilano,
2052,W 4th Av,South,,,1,2011,,,,,Kitsilano,
2061,W 4th Av,North,,,2,Prior 2010,,,,,Kitsilano,
2089,W 4th Av,North,,,1,Prior 2010,,,,,Kitsilano,
2136,W 4th Av,South,,,2,Prior 2010,,,,,Kitsilano,
2141,W 4th Av,North,,,1,2011,,,,,Kitsilano,
2141,W 4th Av,North,,,1,2010,,,,,Kitsilano,
2152,W 4th Av,South,,,1,2011,,,,,Kitsilano,
2152,W 4th Av,South,,,1,2010,,,,,Kitsilano,
2170,W 4th Av,South,,,1,2011,,,,,Kitsilano,
2170,W 4th Av,South,,,1,2010,,,,,Kitsilano,
2175,W 4th Av,North,,,1,Prior 2010,,,,,Kitsilano,
2198,W 4th Av,South,,,2,Prior 2010,,,,,Kitsilano,
2199,W 4th Av,North,,,1,2011,,,,,Kitsilano,
2199,W 4th Av,North,,,1,2010,,,,,Kitsilano,
2200,W 4th Av,South,,,8,Prior 2010,,,,,Kitsilano,
2206,W 4th Av,South,,,1,Prior 2010,,,,,Kitsilano,
2228,W 4th Av,South,,,1,2011,,,,,Kitsilano,
2228,W 4th Av,South,,,1,2010,,,,,Kitsilano,
2270,W 4th Av,South,,,1,Prior 2010,,,,,Kitsilano,
2274,W 4th Av,South,,,1,2011,,,,,Kitsilano,
2274,W 4th Av,South,,,1,2010,,,,,Kitsilano,
2302,W 4th Av,South,,,3,2011,,,,,Kitsilano,
2302,W 4th Av,South,,,3,2010,,,,,Kitsilano,
2340,W 4th Av,South,,,1,2011,,,,,Kitsilano,
2340,W 4th Av,South,,,1,2010,,,,,Kitsilano,
2356,W 4th Av,South,,,1,Prior 2010,,,,,Kitsilano,
2360,W 4th Av,South,,,1,Prior 2010,,,,,Kitsilano,
2383,W 4th Av,North,,,1,2011,,,,,Kitsilano,
2383,W 4th Av,North,,,1,2010,,,,,Kitsilano,
2388,W 4th Av,South,,,1,Prior 2010,,,,,Kitsilano,
2625,W 4th Av,North,,,1,2012,,,,,Kitsilano,
2645,W 4th Av,North,,,1,Prior 2010,,,,,Kitsilano,
2645,W 4th Av,North,,,1,2012,,,,,Kitsilano,
2660,W 4th Av,South,,,1,Prior 2010,,,,,Kitsilano,
2662,W 4th Av,South,,,1,Prior 2010,,,,,Kitsilano,
2662,W 4th Av,South,,,1,2012,,,,,Kitsilano,
2682,W 4th Av,South,,,1,2012,,,,,Kitsilano,
2695,W 4th Av,North,,,1,2012,,,,,Kitsilano,
2698,W 4th Av,East,,,1,2013,,,,,Kitsilano,
2702,W 4th Av,South,,,1,2012,,,,,Kitsilano,
2705,W 4th Av,North,,n/a,2,2016,,,,,Kitsilano,
2716,W 4th Av,South,,,1,2012,,,,,Kitsilano,
2722,W 4th Av,South,,,1,2012,,,,,Kitsilano,
2724,W 4th Av,South,,,1,Prior 2010,,,,,Kitsilano,
2724,W 4th Av,South,,n/a,1,2016,,,,,Kitsilano,
2737,W 4th Av,North,,n/a,2,2016,,,,,Kitsilano,
2741,W 4th Av,North,,,1,Prior 2010,,,,,Kitsilano,
2744,W 4th Av,South,,n/a,1,2016,,,,,Kitsilano,
2745,W 4th Av,North,,n/a,3,2016,,,,,Kitsilano,
2766,W 4th Av,South,,n/a,2,2016,,,,,Kitsilano,
2802,W 4th Av,South,,,1,Prior 2010,,,,,Kitsilano,
2828,W 4th Av,South,,,1,2012,,,,,Kitsilano,
2835,W 4th Av,North,,,1,2015,,,,,Kitsilano,
2836,W 4th Av,South,,,1,Prior 2010,,,,,Kitsilano,
2880,W 4th Av,South,,,1,2012,,,,,Kitsilano,
2919,W 4th Av,North,,,1,2013,,,,,Kitsilano,
2923,W 4th Av,North,,,1,2012,,,,,Kitsilano,
2929,W 4th Av,North,,,1,Prior 2010,,,,,Kitsilano,
2947,W 4th Av,North,,,1,2012,,,,,Kitsilano,
2952,W 4th Av,South,,,1,Prior 2010,,,,,Kitsilano,
2954,W 4th Av,South,,,1,2012,,,,,Kitsilano,
2958,W 4th Av,South,,,1,Prior 2010,,,,,Kitsilano,
2959,W 4th Av,North,,,2,2013,,,,,Kitsilano,
3303,W 4th Av,North,,,1,2012,,,,,Kitsilano,
3327,W 4th Av,North,,,1,2012,,,,,Kitsilano,
3337,W 4th Av,North,,,1,2012,,,,,Kitsilano,
3502,W 4th Av,South,,,1,Prior 2010,,,,,Kitsilano,
3502,W 4th Av,South,,,1,2012,,,,,Kitsilano,
3512,W 4th Av,South,,,1,2012,,,,,Kitsilano,
3525,W 4th Av,North,,,1,2012,,,,,Kitsilano,
3525,W 4th Av,North,,,2,2013,,,,,Kitsilano,
3545,W 4th Av,North,,,1,Prior 2010,,,,,Kitsilano,
3545,W 4th Av,North,,,1,2012,,,,,Kitsilano,
3570,W 4th Av,South,,,1,Prior 2010,,,,,Kitsilano,
3570,W 4th Av,South,,,1,2012,,,,,Kitsilano,
3571,W 4th Av,North,,,2,2012,,,,,Kitsilano,
3590,W 4th Av,South,,,1,2012,,,,,Kitsilano,
3598,W 4th Av,South,,,1,2012,,,,,Kitsilano,
3600,W 4th Av,South,,,1,Prior 2010,,,,,Kitsilano,
3605,W 4th Av,North,,,1,2012,,,,,Kitsilano,
3608,W 4th Av,South,,,1,Prior 2010,,,,,Kitsilano,
3608,W 4th Av,South,,,1,2012,,,,,Kitsilano,
3621,W 4th Av,North,,,1,Prior 2010,,,,,Kitsilano,
3644,W 4th Av,South,,,1,Prior 2010,,,,,Kitsilano,
3650,W 4th Av,South,,,1,2012,,,,,Kitsilano,
3651,W 4th Av,North,,,1,Prior 2010,,,,,Kitsilano,
3654,W 4th Av,South,,,1,Prior 2010,,,,,Kitsilano,
3661,W 4th Av,North,,,1,2012,,,,,Kitsilano,
3689,W 4th Av,North,,,1,Prior 2010,,,,,Kitsilano,
3689,W 4th Av,North,,,1,2012,,,,,Kitsilano,
375,W 5th,North,,,2,2014,,,,,Mount Pleasant,
164,W 5th Av,South,,,1,Prior 2010,,,,,Mount Pleasant,
188,W 5th Av,North,,,2,2012,,,,,Mount Pleasant,
188,W 5th Av,East,,,1,2013,,,,,Mount Pleasant,
28,W 5th Ave,South,,,1,2014,,,,,Fairview,
32,W 5th Ave,South,,,1,2014,,,,,Fairview,
204,W 6th,South,,,1,2014,,,,,West Point Grey,
112,W 6th Av,South,,,1,2012,,,,,Kitsilano,
196,W 6th Av,South,,,1,2013,,,,,Kitsilano,
199,W 6th Av,North,,,1,2013,,,,,Kitsilano,
1520,W 6th Av,South,,,1,Prior 2010,,,,,Kitsilano,
1595,W 6th Av,North,,,1,Prior 2010,,,,,Kitsilano,
1400,W 70th Av,South,,,2,2015,,,,,Marpole,
4,W 7th Av,South,,,1,2012,,,,,Fairview,
75,W 7th Av,North,,,1,2012,,,,,Fairview,
149,W 7th Av,North,,,3,2015,,,,,Fairview,
228,W 7th Av,South,,,1,2012,,,,,Fairview,
331,W 7th Av,North,,,1,2012,,,,,Fairview,
368,W 7th Av,South,,,3,2013,,,,,Fairview,
1399,W 7th Av,North,,,1,Prior 2010,,,,,Fairview,
1557,W 7th Av,North,,,2,2013,,,,,Fairview,
1581,W 7th Av,North,,,1,Prior 2010,,,,,Fairview,
386,W 8th,South,,,2,2014,,,,,Fairview,
402,W 8th,South,,,1,2014,,,,,Fairview,
457,W 8th,North,,,1,2014,,,,,Fairview,
473,W 8th,North,,,1,2014,,,,,Fairview,
510,W 8th,South,,,3,2014,,,,,Fairview,
33,W 8th Av,North,,,3,2012,,,,,Fairview,
77,W 8th Av,North,,,1,2012,,,,,Fairview,
138,W 8th Av,South,,,1,2012,,,,,Fairview,
156,W 8th Av,South,,,1,2012,,,,,Fairview,
224,W 8th Av,South,,,1,2012,,,,,Fairview,
260,W 8th Av,South,,,2,2012,,,,,Fairview,
288,W 8th Av,South,,,1,2012,,,,,Fairview,
342,W 8th Av,South,,,4,2011,,,,,Fairview,
386,W 8th Av,South,,,1,Prior 2010,,,,,Fairview,
390,W 8th Av,South,,,1,Prior 2010,,,,,Fairview,
428,W 8th Av,South,,,2,Prior 2010,,,,,Fairview,
900,W 8th Av,North,,,1,2012,,,,,Fairview,
1500,W 8th Av,South,,,1,2012,,,,,Fairview,
1525,W 8th Av,North,,,2,Prior 2010,,,,,Fairview,
1762,W 8th Av,South,,,1,2015,,,,,Fairview,
1765,W 8th Av,North,,,3,2015,,,,,Fairview,
1768,W 8th Av,South,,,1,2015,,,,,Fairview,
15,W 8th Ave,North,,,4,2014,,,,,Fairview,
42,W 8th Ave,South,,,1,2014,,,,,Fairview,
112,W Broadway,South,,,1,Prior 2010,,,,,Fairview,
130,W Broadway,South,,,4,Prior 2010,,,,,Fairview,
137,W Broadway,North,,,1,Prior 2010,,,,,Fairview,
147,W Broadway,North,,,1,Prior 2010,,,,,Fairview,
155,W Broadway,North,,,1,Prior 2010,,,,,Fairview,
195,W Broadway,North,,,1,Prior 2010,,,,,Fairview,
222,W Broadway,South,,,1,Prior 2010,,,,,Fairview,
230,W Broadway,South,,,1,Prior 2010,,,,,Fairview,
375,W Broadway,North,,,1,Prior 2010,,,,,Fairview,
496,W Broadway,South,Broadway-City Hall,,11,2012,,,,,Fairview,
500,W Broadway,South,,,1,Prior 2010,,,,,Fairview,
532,W Broadway,South,,,1,Prior 2010,,,,,Fairview,
601,W Broadway,North,,,1,Prior 2010,,,,,Fairview,
632,W Broadway,South,,,1,Prior 2010,,,,,Fairview,
665,W Broadway,North,,,2,Prior 2010,,,,,Fairview,
686,W Broadway,South,,,1,Prior 2010,,,,,Fairview,
695,W Broadway,North,,,1,Prior 2010,,,,,Fairview,
777,W Broadway,North,,,2,Prior 2010,,,,,Fairview,
885,W Broadway,North,,,1,Prior 2010,,,,,Fairview,
901,W Broadway,North,,,1,Prior 2010,,,,,Fairview,
906,W Broadway,South,,,1,Prior 2010,,,,,Fairview,
973,W Broadway,North,,,3,Prior 2010,,,,,Fairview,
999,W Broadway,North,,,1,2015,,,,,Fairview,
1030,W Broadway,South,,,1,Prior 2010,,,,,Fairview,
1037,W Broadway,North,,,1,2015,,,,,Fairview,
1063,W Broadway,North,,,1,2015,,,,,Fairview,
1088,W Broadway,South,,,1,2015,,,,,Fairview,
1089,W Broadway,North,,,1,2015,,,,,Fairview,
1128,W Broadway,South,,,1,Prior 2010,,,,,Fairview,
1245,W Broadway,North,,,1,2012,,,,,Fairview,
1245,W Broadway,North,,,1,2013,,,,,Fairview,
1268,W Broadway,South,,,1,Prior 2010,,,,,Fairview,
1278,W Broadway,South,,,1,2012,,,,,Fairview,
1285,W Broadway,North,,,2,2013,,,,,Fairview,
1421,W Broadway,North,,,1,Prior 2010,,,,,Fairview,
1595,W Broadway,North,,,2,Prior 2010,,,,,Fairview,
1701,W Broadway,North,,,1,Prior 2010,,,,,Fairview,
1724,W Broadway,South,,,1,Prior 2010,,,,,Fairview,
1727,W Broadway,North,,,2,Prior 2010,,,,,Fairview,
1755,W Broadway,North,,,2,Prior 2010,,,,,Fairview,
1755,W Broadway,North,,,1,Prior 2010,,,,,Fairview,
1867,W Broadway,North,,,2,Prior 2010,,,,,Fairview,
1885,W Broadway,North,,,1,Prior 2010,,,,,Fairview,
1885,W Broadway,North,,,2,2012,,,,,Fairview,
1900,W Broadway,South,,,1,Prior 2010,,,,,Fairview,
2150,W Broadway,South,,,1,2015,,,,,Fairview,
2154,W Broadway,South,,,1,2015,,,,,Fairview,
2156,W Broadway,South,,,2,2015,,,,,Fairview,
2176,W Broadway,South,,,1,2015,,,,,Fairview,
2182,W Broadway,South,,,1,2015,,,,,Fairview,
2221,W Broadway,North ,,,1,2014,,,,,Fairview,
2225,W Broadway,North ,,,1,2014,,,,,Fairview,
2245,W Broadway,North,,,1,Prior 2010,,,,,Fairview,
2255,W Broadway,North ,,,1,2014,,,,,Fairview,
2283,W Broadway,North ,,,1,2014,,,,,Fairview,
2289,W Broadway,North ,,,1,2014,,,,,Fairview,
2300,W Broadway,South,,,2,2014,,,,,Fairview,
2303,W Broadway,North ,,,2,2014,,,,,Fairview,
2306,W Broadway,South,,,1,Prior 2010,,,,,Fairview,
2505,W Broadway,North,,,1,Prior 2010,,,,,Fairview,
2505,W Broadway,North,,,1,2012,,,,,Fairview,
2505,W Broadway,North,,,1,2014,,,,,Fairview,
2518,W Broadway,South,,,1,Prior 2010,,,,,Fairview,
2529,W Broadway,North,,,1,2014,,,,,Fairview,
2545,W Broadway,North,,,3,Prior 2010,,,,,Fairview,
2579,W Broadway,North,,,1,2014,,,,,Fairview,
2581,W Broadway,North,,,1,Prior 2010,,,,,Fairview,
2582,W Broadway,South,,,1,Prior 2010,,,,,Fairview,
2665,W Broadway,North,,,3,Prior 2010,,,,,Fairview,
2671,W Broadway,North,,,1,Prior 2010,,,,,Fairview,
2681,W Broadway,North,,,1,Prior 2010,,,,,Fairview,
2684,W Broadway,South,,,1,Prior 2010,,,,,Fairview,
2696,W Broadway,South,,WB,1,2011,,,,,Fairview,
2699,W Broadway,North,,,1,Prior 2010,,,,,Fairview,
2732,W Broadway,South,,,1,Prior 2010,,,,,Fairview,
2733,W Broadway,North,,WB,1,2011,,,,,Fairview,
2786,W Broadway,South,,WB,1,2011,,,,,Fairview,
2790,W Broadway,South,,WB,1,2011,,,,,Fairview,
2821,W Broadway,North,,WB,1,2011,,,,,Fairview,
2837,W Broadway,North,,WB,1,2011,,,,,Fairview,
2868,W Broadway,South,,,1,Prior 2010,,,,,Fairview,
2868,W Broadway,South,,WB,1,2011,,,,,Fairview,
2886,W Broadway,South,,,1,Prior 2010,,,,,Fairview,
2902,W Broadway,South,,,1,Prior 2010,,,,,Fairview,
2902,W Broadway,West,,WB,1,2011,,,,,Fairview,
2909,W Broadway,North,,WB,1,2011,,,,,Fairview,
2934,W Broadway,South,,,1,Prior 2010,,,,,Fairview,
2951,W Broadway,West,,WB,1,2017,,,,,Fairview,
2979,W Broadway,North,,WB,1,2011,,,,,Fairview,
3031,W Broadway,North,,WB,1,2011,,,,,Fairview,
3035,W Broadway,North,,,2,Prior 2010,,,,,Fairview,
3036,W Broadway,South,,,1,Prior 2010,,,,,Fairview,
3036,W Broadway,South,,WB,1,2011,,,,,Fairview,
3038,W Broadway,South,,WB,1,2011,,,,,Fairview,
3045,W Broadway,North,,WB,1,2011,,,,,Fairview,
3065,W Broadway,North,,,1,Prior 2010,,,,,Fairview,
3066,W Broadway,South,,WB,1,2011,,,,,Fairview,
3083,W Broadway,North,,,1,Prior 2010,,,,,Fairview,
3083,W Broadway,East,,WB,2,2011,,,,,Fairview,
3091,W Broadway,North,,WB,1,2011,,,,,Fairview,
3102,W Broadway,South,,WB,1,2011,,,,,Fairview,
3102,W Broadway,West,,WB,2,2013,,,,,Fairview,
3105,W Broadway,West,,WB,1,2011,,,,,Fairview,
3123,W Broadway,North,,,2,Prior 2010,,,,,Fairview,
3124,W Broadway,South,,,1,Prior 2010,,,,,Fairview,
3124,W Broadway,South,,,1,2012,,,,,Fairview,
3126,W Broadway,South,,WB,1,2011,,,,,Fairview,
3135,W Broadway,North,,WB,1,2011,,,,,Fairview,
3143,W Broadway,North,,WB,1,2011,,,,,Fairview,
3145,W Broadway,North,,,1,Prior 2010,,,,,Fairview,
3156,W Broadway,South,,,1,Prior 2010,,,,,Fairview,
3156,W Broadway,South,,WB,1,2011,,,,,Fairview,
3235,W Broadway,North,,WB,1,2011,,,,,Fairview,
3236,W Broadway,South,,,1,Prior 2010,,,,,Fairview,
3236,W Broadway,South,,WB,1,2011,,,,,Fairview,
3287,W Broadway,North,,,1,Prior 2010,,,,,Fairview,
3291,W Broadway,North,,,1,Prior 2010,,,,,Fairview,
3298,W Broadway,South,,,1,Prior 2010,,,,,Fairview,
3308,W Broadway,South,,WB,1,2011,,,,,Fairview,
3310,W Broadway,South,,,1,Prior 2010,,,,,Fairview,
3311,W Broadway,North,,,1,Prior 2010,,,,,Fairview,
3313,W Broadway,North,,WB,1,2011,,,,,Fairview,
3328,W Broadway,South,,WB,1,2011,,,,,Fairview,
3349,W Broadway,North,,WB,1,2011,,,,,Fairview,
3422,W Broadway,South,,WB,1,2011,,,,,Fairview,
3428,W Broadway,South,,WB,1,2011,,,,,Fairview,
3431,W Broadway,North,,,1,Prior 2010,,,,,Fairview,
3431,W Broadway,North,,WB,1,2011,,,,,Fairview,
3454,W Broadway,South,,,1,Prior 2010,,,,,Fairview,
3485,W Broadway,North,,WB,1,2011,,,,,Fairview,
3496,W Broadway,South,,,1,Prior 2010,,,,,Fairview,
3555,W Broadway,North,,,1,Prior 2010,,,,,Fairview,
3661,W Broadway,North,,,1,Prior 2010,,,,,Fairview,
3673,W Broadway,North,,,1,Prior 2010,,,,,Fairview,
2,W Cordova St,South,,GT,5,2012,,,,,Central Business District,
108,W Cordova St,South,,GT,1,2012,,,,,Central Business District,
175,W Cordova St,East,,GT,2,2016,,,,,Central Business District,
301,W Cordova St,North,,GT,1,2012,,,,,Central Business District,
304,W Cordova St,North,,GT,1,2016,,,,,Central Business District,
309,W Cordova St,West,,GT,1,2016,,,,,Central Business District,
314,W Cordova St,South,,,2,Prior 2010,,,,,Central Business District,
403,W Cordova St,North,,,1,Prior 2010,,,,,Central Business District,
403,W Cordova St,North,,GT,2,2012,,,,,Central Business District,
403,W Cordova St,North,,,1,2012,,,,,Central Business District,
415,W Cordova St,North,,GT,2,2012,,,,,Central Business District,
601,W Cordova St,North,,,1,Prior 2010,,,,,Central Business District,
601,W Cordova St,North,Waterfront,,3,2012,,,,,Central Business District,
1100,W Cordova St,South,,,1,2012,,,,,Central Business District,
161,W Georgia St,East,,n/a,3,2016,,,,,Central Business District,
180,W Georgia St,South,,,2,2011,,,,,Central Business District,
555,W Georgia St,North,,,1,Prior 2010,,,,,Central Business District,
650,W Georgia St,South,,,1,Prior 2010,,,,,Central Business District,
650,W Georgia St,South,,,1,2012,,,,,Central Business District,
702,W Georgia St,South,Vancouver City Centre,,8,2012,,,,,Central Business District,
801,W Georgia St,North,,,1,2015,,,,,Central Business District,
801,W Georgia St,North,,,2,2015,,,,,Central Business District,
885,W Georgia St,North,,,2,Prior 2010,,,,,Central Business District,
925,W Georgia St,North,,,3,Prior 2010,,,,,Central Business District,
1025,W Georgia St,North,,,1,2011,,,,,Central Business District,
1025,W Georgia St,North,,,1,2010,,,,,Central Business District,
1030,W Georgia St,South,,,1,Prior 2010,,,,,Central Business District,
1055,W Georgia St,North,,,4,Prior 2010,,,,,Central Business District,
1445,W Georgia St,North,,,3,2015,,,,,Central Business District,
1616,W Georgia St,South,,,1,Prior 2010,,,,,Central Business District,
30,W Hastings St,South,,,1,2012,,,,,Central Business District,
43,W Hastings St,North,,,1,Prior 2010,,,,,Central Business District,
43,W Hastings St,North,,,1,2012,,,,,Central Business District,
58,W Hastings St,South,,,4,Prior 2010,,,,,Central Business District,
84,W Hastings St,South,,,3,2012,,,,,Central Business District,
106,W Hastings St,South,,HC,1,2013,,,,,Central Business District,
112,W Hastings St,South,,,1,Prior 2010,,,,,Central Business District,
126,W Hastings St,South,,HC,1,2013,,,,,Central Business District,
128,W Hastings St,South,,,1,2012,,,,,Central Business District,
134,W Hastings St,South,,HC,2,2013,,,,,Central Business District,
163,W Hastings St,North,,,4,2011,,,,,Central Business District,
163,W Hastings St,North,,,3,2010,,,,,Central Business District,
198,W Hastings St,South,,,2,Prior 2010,,,,,Central Business District,
198,W Hastings St,South,,,3,2011,,,,,Central Business District,
198,W Hastings St,South,,,2,2010,,,,,Central Business District,
207,W Hastings St,North,,,1,2012,,,,,Central Business District,
207,W Hastings St,North,,,1,2011,,,,,Central Business District,
207,W Hastings St,West,,HC,2,2016,,,,,Central Business District,
219,W Hastings St,North,,,1,2012,,,,,Central Business District,
219,W Hastings St,North,,,1,2011,,,,,Central Business District,
227,W Hastings St,North,,,5,2011,,,,,Central Business District,
227,W Hastings St,North,,,3,2010,,,,,Central Business District,
300,W Hastings St,South,,,1,2012,,,,,Central Business District,
300,W Hastings St,South,,,1,2011,,,,,Central Business District,
314,W Hastings St,South,,,1,2012,,,,,Central Business District,
314,W Hastings St,South,,,1,2011,,,,,Central Business District,
324,W Hastings St,South,,,1,Prior 2010,,,,,Central Business District,
337,W Hastings St,North,,,1,Prior 2010,,,,,Central Business District,
400,W Hastings St,South,,,3,2012,,,,,Central Business District,
400,W Hastings St,South,,,3,2011,,,,,Central Business District,
412,W Hastings St,South,,,1,Prior 2010,,,,,Central Business District,
473,W Hastings St,North,,,1,2012,,,,,Central Business District,
473,W Hastings St,North,,,1,2011,,,,,Central Business District,
492,W Hastings St,South,,,1,Prior 2010,,,,,Central Business District,
510,W Hastings St,South,,,2,Prior 2010,,,,,Central Business District,
515,W Hastings St,North,,,2,Prior 2010,,,,,Central Business District,
555,W Hastings St,North,,,1,Prior 2010,,,,,Central Business District,
555,W Hastings St,North,,,2,2012,,,,,Central Business District,
555,W Hastings St,North,,,2,2011,,,,,Central Business District,
601,W Hastings St,North,,,2,2010,,,,,Central Business District,
602,W Hastings St,South,,,1,Prior 2010,,,,,Central Business District,
602,W Hastings St,South,,,2,2010,,,,,Central Business District,
609,W Hastings St,North,,,2,2010,,,,,Central Business District,
675,W Hastings St,North,,,1,Prior 2010,,,,,Central Business District,
675,W Hastings St,North,,,1,2010,,,,,Central Business District,
688,W Hastings St,South,,,1,Prior 2010,,,,,Central Business District,
700,W Hastings St,South,,,2,2010,,,,,Central Business District,
808,W Hastings St,South,,,1,Prior 2010,,,,,Central Business District,
808,W Hastings St,South,,,1,2010,,,,,Central Business District,
838,W Hastings St,South,,,2,2012,,,,,Central Business District,
848,W Hastings St,South,,,1,Prior 2010,,,,,Central Business District,
850,W Hastings St,South,,,1,Prior 2010,,,,,Central Business District,
900,W Hastings St,South,,,2,Prior 2010,,,,,Central Business District,
1055,W Hastings St,North,,,2,Prior 2010,,,,,Central Business District,
1055,W Hastings St,North,,,2,2010,,,,,Central Business District,
1099,W Hastings St,North,,,2,2010,,,,,Central Business District,
1111,W Hastings St,North,,,1,2010,,,,,Central Business District,
1133,W Hastings St,North,,,1,2010,,,,,Central Business District,
1177,W Hastings St,North ,,,2,2014,,,,,Central Business District,
1177,W Hastings St,North,,,2,2010,,,,,Central Business District,
27,W Pender St,North,,,1,2015,,,,,Central Business District,
33,W Pender St,North,,,2,2015,,,,,Central Business District,
59,W Pender St,North,,,1,Prior 2010,,,,,Central Business District,
59,W Pender St,North,,,1,2012,,,,,Central Business District,
59,W Pender St,North,,,1,2015,,,,,Central Business District,
99,W Pender St,North,,,1,2015,,,,,Central Business District,
300,W Pender St,South,,,2,2013,,,,,Central Business District,
309,W Pender St,North,,,1,2012,,,,,Central Business District,
309,W Pender St,North,,,1,2011,,,,,Central Business District,
319,W Pender St,North,,,1,2012,,,,,Central Business District,
319,W Pender St,North,,,1,2011,,,,,Central Business District,
328,W Pender St,South,,HC,1,2013,,,,,Central Business District,
338,W Pender St,South,,HC,1,2013,,,,,Central Business District,
344,W Pender St,South,,HC,1,2013,,,,,Central Business District,
402,W Pender St,South,,,1,Prior 2010,,,,,Central Business District,
416,W Pender St,South,,,1,2012,,,,,Central Business District,
416,W Pender St,South,,,1,2011,,,,,Central Business District,
433,W Pender St,North,,,1,2012,,,,,Central Business District,
433,W Pender St,North,,,1,2011,,,,,Central Business District,
445,W Pender St,North,,,1,2012,,,,,Central Business District,
445,W Pender St,North,,,2,2011,,,,,Central Business District,
455,W Pender St,North,,,1,Prior 2010,,,,,Central Business District,
518,W Pender St,South,,,1,2012,,,,,Central Business District,
518,W Pender St,South,,,1,2011,,,,,Central Business District,
605,W Pender St,North,,,1,2012,,,,,Central Business District,
605,W Pender St,North,,,1,2011,,,,,Central Business District,
617,W Pender St,North,,,1,2012,,,,,Central Business District,
617,W Pender St,North,,,1,2011,,,,,Central Business District,
789,W Pender St,North,,,2,Prior 2010,,,,,Central Business District,
819,W Pender St,North,,,1,2012,,,,,Central Business District,
819,W Pender St,North,,,1,2011,,,,,Central Business District,
829,W Pender St,North,,,1,2012,,,,,Central Business District,
829,W Pender St,North,,,1,2011,,,,,Central Business District,
830,W Pender St,South,,,1,2012,,,,,Central Business District,
830,W Pender St,South,,,1,2011,,,,,Central Business District,
1095,W Pender St,North,,,1,Prior 2010,,,,,Central Business District,
1139,W Pender St,North,,DVBIA,1,2013,,,,,Central Business District,
1140,W Pender St,South,,DVBIA,2,2013,,,,,Central Business District,
250,W Pender St ,West,,HC,4,2016,,,,,Central Business District,
402,W Pender St ,South,,,1,Prior 2010,,,,,Central Business District,
3,Water St,North,,GT,3,2012,,,,,Central Business District,
10,Water St,South,,GT,2,2012,,,,,Central Business District,
19,Water St,North,,GT,1,2012,,,,,Central Business District,
55,Water St,North,,,1,Prior 2010,,,,,Central Business District,
65,Water St,North,,,1,Prior 2010,,,,,Central Business District,
102,Water St,South,,GT,1,2012,,,,,Central Business District,
142,Water St,South,,GT,1,2012,,,,,Central Business District,
199,Water St,North,,,1,Prior 2010,,,,,Central Business District,
199,Water St,North,,GT,1,2012,,,,,Central Business District,
302,Water St,West,,GT,2,2016,,,,,Central Business District,
322,Water St,South,,GT,1,2012,,,,,Central Business District,
332,Water St,South,,GT,1,2012,,,,,Central Business District,
375,Water St,North,,,1,Prior 2010,,,,,Central Business District,
375,Water St,North,,GT,3,2012,,,,,Central Business District,
5367,West Boulevard,West,,,1,2015,,,,,Kitsilano,
5389,West Boulevard,West,,,1,2015,,,,,Kitsilano,
5435,West Boulevard,West,,,1,Prior 2010,,,,,Kitsilano,
5663,West Boulevard,West,,,1,2012,,,,,Kitsilano,
5665,West Boulevard,West,,,1,Prior 2010,,,,,Kitsilano,
5765,West Boulevard,West,,,1,2012,,,,,Kitsilano,
5777,West Boulevard,West,,,1,2012,,,,,Kitsilano,
6191,West Boulevard,West,,,1,Prior 2010,,,,,Kitsilano,
2300,Willow St,West,,,1,2012,,,,,South Cambie,
1500,Yew St,East,,,1,Prior 2010,,,,,Kitsilano,
1500,Yew St,East,,,1,2015,,,,,Kitsilano,
1520,Yew St,East,,,1,Prior 2010,,,,,Kitsilano,
1520,Yew St,East,,,1,2015,,,,,Kitsilano,
1525,Yew St,West,,,1,2015,,,,,Kitsilano,
1555,Yew St,West,,,2,2014,,,,,Kitsilano,
1601,Yew St,West,,,5,2014,,,,,Kitsilano,
1601,Yew St,West,,,5,2014,,,,,Kitsilano,
2327,Yew St,West,,,1,Prior 2010,,,,,Kitsilano,
5687,Yew St,West,,,1,2012,,,,,Kitsilano,
5692,Yew St,East,,,2,2012,,,,,Kitsilano,
1800,York Av,North,,,1,2014,,,,,Kitsilano,
1900,York Av,North,,,1,2014,,,,,Kitsilano,
1900,York Av,South,,,1,2014,,,,,Kitsilano,
2190,York Av,South,,,2,2015,,,,,Kitsilano,
2201,York Av,North ,,,2,2014,,,,,Kitsilano,
2204,York Av,South,,,1,Prior 2010,,,,,Kitsilano,
2450,Yukon St,East,,,1,2014,,,,,Mount Pleasant,
2459,Yukon St,West,,,2,2014,,,,,Mount Pleasant,
2490,Yukon St,East,,,1,2012,,,,,Mount Pleasant,
